<?xml version="1.0" encoding="utf-8"?>
<!DOCTYPE eagle SYSTEM "eagle.dtd">
<eagle version="9.4.2">
<drawing>
<settings>
<setting alwaysvectorfont="yes"/>
<setting verticaltext="up"/>
</settings>
<grid distance="0.05" unitdist="inch" unit="mil" style="dots" multiple="1" display="no" altdistance="5" altunitdist="mil" altunit="mil"/>
<layers>
<layer number="1" name="Top" color="4" fill="1" visible="yes" active="yes"/>
<layer number="2" name="Route2" color="1" fill="3" visible="no" active="yes"/>
<layer number="15" name="Route15" color="4" fill="6" visible="no" active="yes"/>
<layer number="16" name="Bottom" color="1" fill="1" visible="yes" active="yes"/>
<layer number="17" name="Pads" color="2" fill="1" visible="yes" active="yes"/>
<layer number="18" name="Vias" color="2" fill="1" visible="yes" active="yes"/>
<layer number="19" name="Unrouted" color="6" fill="1" visible="yes" active="yes"/>
<layer number="20" name="Dimension" color="24" fill="1" visible="yes" active="yes"/>
<layer number="21" name="tPlace" color="7" fill="1" visible="yes" active="yes"/>
<layer number="22" name="bPlace" color="7" fill="1" visible="yes" active="yes"/>
<layer number="23" name="tOrigins" color="15" fill="1" visible="yes" active="yes"/>
<layer number="24" name="bOrigins" color="15" fill="1" visible="yes" active="yes"/>
<layer number="25" name="tNames" color="7" fill="1" visible="yes" active="yes"/>
<layer number="26" name="bNames" color="7" fill="1" visible="yes" active="yes"/>
<layer number="27" name="tValues" color="7" fill="1" visible="yes" active="yes"/>
<layer number="28" name="bValues" color="7" fill="1" visible="yes" active="yes"/>
<layer number="29" name="tStop" color="7" fill="3" visible="no" active="yes"/>
<layer number="30" name="bStop" color="7" fill="6" visible="no" active="yes"/>
<layer number="31" name="tCream" color="7" fill="4" visible="no" active="yes"/>
<layer number="32" name="bCream" color="7" fill="5" visible="no" active="yes"/>
<layer number="33" name="tFinish" color="6" fill="3" visible="no" active="yes"/>
<layer number="34" name="bFinish" color="6" fill="6" visible="no" active="yes"/>
<layer number="35" name="tGlue" color="7" fill="4" visible="no" active="yes"/>
<layer number="36" name="bGlue" color="7" fill="5" visible="no" active="yes"/>
<layer number="37" name="tTest" color="7" fill="1" visible="no" active="yes"/>
<layer number="38" name="bTest" color="7" fill="1" visible="no" active="yes"/>
<layer number="39" name="tKeepout" color="4" fill="11" visible="yes" active="yes"/>
<layer number="40" name="bKeepout" color="1" fill="11" visible="yes" active="yes"/>
<layer number="41" name="tRestrict" color="4" fill="10" visible="yes" active="yes"/>
<layer number="42" name="bRestrict" color="1" fill="10" visible="yes" active="yes"/>
<layer number="43" name="vRestrict" color="2" fill="10" visible="yes" active="yes"/>
<layer number="44" name="Drills" color="7" fill="1" visible="no" active="yes"/>
<layer number="45" name="Holes" color="7" fill="1" visible="yes" active="yes"/>
<layer number="46" name="Milling" color="3" fill="1" visible="no" active="yes"/>
<layer number="47" name="Measures" color="7" fill="1" visible="no" active="yes"/>
<layer number="48" name="Document" color="7" fill="1" visible="yes" active="yes"/>
<layer number="49" name="Reference" color="7" fill="1" visible="yes" active="yes"/>
<layer number="50" name="dxf" color="7" fill="1" visible="no" active="no"/>
<layer number="51" name="tDocu" color="7" fill="1" visible="yes" active="yes"/>
<layer number="52" name="bDocu" color="7" fill="1" visible="yes" active="yes"/>
<layer number="53" name="tGND_GNDA" color="7" fill="9" visible="no" active="no"/>
<layer number="54" name="bGND_GNDA" color="1" fill="9" visible="no" active="no"/>
<layer number="56" name="wert" color="7" fill="1" visible="no" active="no"/>
<layer number="57" name="tCAD" color="7" fill="1" visible="no" active="no"/>
<layer number="59" name="tCarbon" color="7" fill="1" visible="no" active="no"/>
<layer number="60" name="bCarbon" color="7" fill="1" visible="no" active="no"/>
<layer number="88" name="SimResults" color="9" fill="1" visible="no" active="no"/>
<layer number="89" name="SimProbes" color="9" fill="1" visible="no" active="no"/>
<layer number="90" name="Modules" color="5" fill="1" visible="no" active="no"/>
<layer number="91" name="Nets" color="2" fill="1" visible="no" active="no"/>
<layer number="92" name="Busses" color="1" fill="1" visible="no" active="no"/>
<layer number="93" name="Pins" color="2" fill="1" visible="no" active="no"/>
<layer number="94" name="Symbols" color="4" fill="1" visible="no" active="no"/>
<layer number="95" name="Names" color="7" fill="1" visible="no" active="no"/>
<layer number="96" name="Values" color="7" fill="1" visible="no" active="no"/>
<layer number="97" name="Info" color="7" fill="1" visible="no" active="no"/>
<layer number="98" name="Guide" color="6" fill="1" visible="no" active="no"/>
<layer number="99" name="SpiceOrder" color="7" fill="1" visible="no" active="no"/>
<layer number="100" name="Muster" color="7" fill="1" visible="no" active="no"/>
<layer number="101" name="Patch_Top" color="12" fill="4" visible="no" active="yes"/>
<layer number="102" name="Vscore" color="7" fill="1" visible="no" active="yes"/>
<layer number="103" name="fp3" color="7" fill="1" visible="no" active="yes"/>
<layer number="104" name="Name" color="7" fill="1" visible="no" active="yes"/>
<layer number="105" name="Beschreib" color="9" fill="1" visible="no" active="yes"/>
<layer number="106" name="BGA-Top" color="4" fill="1" visible="no" active="yes"/>
<layer number="107" name="BD-Top" color="5" fill="1" visible="no" active="yes"/>
<layer number="108" name="fp8" color="7" fill="1" visible="no" active="yes"/>
<layer number="109" name="fp9" color="7" fill="1" visible="no" active="yes"/>
<layer number="110" name="fp0" color="7" fill="1" visible="no" active="yes"/>
<layer number="111" name="LPC17xx" color="7" fill="1" visible="no" active="yes"/>
<layer number="112" name="tSilk" color="7" fill="1" visible="no" active="yes"/>
<layer number="113" name="ReferenceLS" color="7" fill="1" visible="no" active="no"/>
<layer number="114" name="Badge_Outline" color="7" fill="1" visible="no" active="yes"/>
<layer number="115" name="ReferenceISLANDS" color="7" fill="1" visible="no" active="yes"/>
<layer number="116" name="Patch_BOT" color="9" fill="4" visible="no" active="yes"/>
<layer number="118" name="Rect_Pads" color="7" fill="1" visible="no" active="no"/>
<layer number="121" name="_tsilk" color="7" fill="1" visible="no" active="yes"/>
<layer number="122" name="_bsilk" color="7" fill="1" visible="no" active="yes"/>
<layer number="123" name="tTestmark" color="7" fill="1" visible="no" active="yes"/>
<layer number="124" name="bTestmark" color="7" fill="1" visible="no" active="yes"/>
<layer number="125" name="_tNames" color="7" fill="1" visible="no" active="yes"/>
<layer number="126" name="_bNames" color="7" fill="1" visible="no" active="yes"/>
<layer number="127" name="_tValues" color="7" fill="1" visible="no" active="yes"/>
<layer number="128" name="_bValues" color="7" fill="1" visible="no" active="yes"/>
<layer number="129" name="Mask" color="7" fill="1" visible="yes" active="yes"/>
<layer number="131" name="tAdjust" color="7" fill="1" visible="no" active="yes"/>
<layer number="132" name="bAdjust" color="7" fill="1" visible="no" active="yes"/>
<layer number="144" name="Drill_legend" color="7" fill="1" visible="no" active="yes"/>
<layer number="150" name="Notes" color="7" fill="1" visible="no" active="yes"/>
<layer number="151" name="HeatSink" color="7" fill="1" visible="no" active="yes"/>
<layer number="152" name="_bDocu" color="7" fill="1" visible="no" active="yes"/>
<layer number="153" name="FabDoc1" color="6" fill="1" visible="no" active="no"/>
<layer number="154" name="FabDoc2" color="2" fill="1" visible="no" active="no"/>
<layer number="155" name="FabDoc3" color="7" fill="15" visible="no" active="no"/>
<layer number="199" name="Contour" color="7" fill="1" visible="no" active="yes"/>
<layer number="200" name="200bmp" color="1" fill="10" visible="no" active="yes"/>
<layer number="201" name="201bmp" color="2" fill="1" visible="no" active="no"/>
<layer number="202" name="202bmp" color="3" fill="1" visible="no" active="no"/>
<layer number="203" name="203bmp" color="4" fill="10" visible="no" active="yes"/>
<layer number="204" name="204bmp" color="5" fill="10" visible="no" active="yes"/>
<layer number="205" name="205bmp" color="6" fill="10" visible="no" active="yes"/>
<layer number="206" name="206bmp" color="7" fill="10" visible="no" active="yes"/>
<layer number="207" name="207bmp" color="8" fill="10" visible="no" active="yes"/>
<layer number="208" name="208bmp" color="9" fill="10" visible="no" active="yes"/>
<layer number="209" name="209bmp" color="7" fill="1" visible="no" active="yes"/>
<layer number="210" name="210bmp" color="7" fill="1" visible="no" active="yes"/>
<layer number="211" name="211bmp" color="7" fill="1" visible="no" active="yes"/>
<layer number="212" name="212bmp" color="7" fill="1" visible="no" active="yes"/>
<layer number="213" name="213bmp" color="7" fill="1" visible="no" active="yes"/>
<layer number="214" name="214bmp" color="7" fill="1" visible="no" active="yes"/>
<layer number="215" name="215bmp" color="7" fill="1" visible="no" active="yes"/>
<layer number="216" name="216bmp" color="7" fill="1" visible="no" active="yes"/>
<layer number="217" name="217bmp" color="18" fill="1" visible="no" active="no"/>
<layer number="218" name="218bmp" color="19" fill="1" visible="no" active="no"/>
<layer number="219" name="219bmp" color="20" fill="1" visible="no" active="no"/>
<layer number="220" name="220bmp" color="21" fill="1" visible="no" active="no"/>
<layer number="221" name="221bmp" color="22" fill="1" visible="no" active="no"/>
<layer number="222" name="222bmp" color="23" fill="1" visible="no" active="no"/>
<layer number="223" name="223bmp" color="24" fill="1" visible="no" active="no"/>
<layer number="224" name="224bmp" color="25" fill="1" visible="no" active="no"/>
<layer number="225" name="225bmp" color="7" fill="1" visible="yes" active="yes"/>
<layer number="226" name="226bmp" color="7" fill="1" visible="yes" active="yes"/>
<layer number="227" name="227bmp" color="7" fill="1" visible="yes" active="yes"/>
<layer number="228" name="228bmp" color="7" fill="1" visible="yes" active="yes"/>
<layer number="229" name="229bmp" color="7" fill="1" visible="yes" active="yes"/>
<layer number="230" name="230bmp" color="7" fill="1" visible="yes" active="yes"/>
<layer number="231" name="Eagle3D_PG1" color="7" fill="1" visible="no" active="no"/>
<layer number="232" name="Eagle3D_PG2" color="7" fill="1" visible="no" active="no"/>
<layer number="233" name="Eagle3D_PG3" color="7" fill="1" visible="no" active="no"/>
<layer number="248" name="Housing" color="7" fill="1" visible="no" active="yes"/>
<layer number="249" name="Edge" color="7" fill="1" visible="no" active="yes"/>
<layer number="250" name="Descript" color="7" fill="1" visible="no" active="no"/>
<layer number="251" name="SMDround" color="7" fill="1" visible="no" active="no"/>
<layer number="254" name="cooling" color="7" fill="1" visible="no" active="yes"/>
<layer number="255" name="routoute" color="7" fill="1" visible="yes" active="yes"/>
</layers>
<board>
<plain>
<wire x1="0" y1="0" x2="127" y2="0" width="0" layer="20"/>
<wire x1="127" y1="0" x2="127" y2="12.065" width="0" layer="20"/>
<wire x1="127" y1="12.065" x2="0" y2="12.065" width="0" layer="20"/>
<wire x1="0" y1="12.065" x2="0" y2="0" width="0" layer="20"/>
<hole x="115.57" y="1.905" drill="1.6"/>
<hole x="115.57" y="10.16" drill="1.6"/>
<hole x="11.303" y="10.16" drill="1.6"/>
<hole x="11.43" y="1.905" drill="1.6"/>
<text x="121.539" y="9.017" size="0.9144" layer="26" ratio="10" rot="MR180">GND</text>
<text x="5.715" y="8.128" size="0.9144" layer="26" ratio="10" rot="MR0">GND</text>
<text x="121.539" y="2.159" size="0.9144" layer="26" ratio="10" rot="MR180">12V</text>
<text x="5.588" y="1.143" size="0.9144" layer="26" ratio="10" rot="MR0">12V</text>
<text x="121.666" y="5.461" size="0.9144" layer="26" ratio="10" rot="MR180">OUT</text>
<text x="4.572" y="4.826" size="0.9144" layer="26" ratio="10" rot="MR0">IN</text>
<hole x="81.28" y="10.16" drill="1.6"/>
<hole x="81.28" y="1.905" drill="1.6"/>
<hole x="46.99" y="1.905" drill="1.6"/>
<hole x="46.99" y="10.16" drill="1.6"/>
</plain>
<libraries>
<library name="adafruit" urn="urn:adsk.eagle:library:420">
<packages>
<package name="R0603" urn="urn:adsk.eagle:footprint:6239919/1" library_version="2">
<description>&lt;b&gt;RESISTOR&lt;/b&gt;&lt;p&gt;
chip</description>
<wire x1="-0.432" y1="-0.356" x2="0.432" y2="-0.356" width="0.1524" layer="51"/>
<wire x1="0.432" y1="0.356" x2="-0.432" y2="0.356" width="0.1524" layer="51"/>
<wire x1="-1.473" y1="0.983" x2="1.473" y2="0.983" width="0.0508" layer="39"/>
<wire x1="1.473" y1="0.983" x2="1.473" y2="-0.983" width="0.0508" layer="39"/>
<wire x1="1.473" y1="-0.983" x2="-1.473" y2="-0.983" width="0.0508" layer="39"/>
<wire x1="-1.473" y1="-0.983" x2="-1.473" y2="0.983" width="0.0508" layer="39"/>
<smd name="1" x="-0.85" y="0" dx="1" dy="1.1" layer="1"/>
<smd name="2" x="0.85" y="0" dx="1" dy="1.1" layer="1"/>
<text x="-0.889" y="0.889" size="1.27" layer="25">&gt;NAME</text>
<text x="-0.889" y="-2.032" size="1.27" layer="27">&gt;VALUE</text>
<rectangle x1="0.4318" y1="-0.4318" x2="0.8382" y2="0.4318" layer="51"/>
<rectangle x1="-0.8382" y1="-0.4318" x2="-0.4318" y2="0.4318" layer="51"/>
<rectangle x1="-0.1999" y1="-0.4001" x2="0.1999" y2="0.4001" layer="35"/>
</package>
<package name="C0603" urn="urn:adsk.eagle:footprint:6239685/1" library_version="2">
<description>&lt;b&gt;CAPACITOR&lt;/b&gt;&lt;p&gt;
chip</description>
<wire x1="-1.473" y1="0.983" x2="1.473" y2="0.983" width="0.0508" layer="39"/>
<wire x1="1.473" y1="0.983" x2="1.473" y2="-0.983" width="0.0508" layer="39"/>
<wire x1="1.473" y1="-0.983" x2="-1.473" y2="-0.983" width="0.0508" layer="39"/>
<wire x1="-1.473" y1="-0.983" x2="-1.473" y2="0.983" width="0.0508" layer="39"/>
<wire x1="-0.356" y1="0.432" x2="0.356" y2="0.432" width="0.1016" layer="51"/>
<wire x1="-0.356" y1="-0.419" x2="0.356" y2="-0.419" width="0.1016" layer="51"/>
<smd name="1" x="-0.85" y="0" dx="1.1" dy="1" layer="1"/>
<smd name="2" x="0.85" y="0" dx="1.1" dy="1" layer="1"/>
<text x="-0.889" y="0.762" size="1.27" layer="25">&gt;NAME</text>
<text x="-0.889" y="-2.032" size="1.27" layer="27">&gt;VALUE</text>
<rectangle x1="-0.8382" y1="-0.4699" x2="-0.3381" y2="0.4801" layer="51"/>
<rectangle x1="0.3302" y1="-0.4699" x2="0.8303" y2="0.4801" layer="51"/>
<rectangle x1="-0.1999" y1="-0.3" x2="0.1999" y2="0.3" layer="35"/>
</package>
</packages>
<packages3d>
<package3d name="R0603" urn="urn:adsk.eagle:package:6240565/1" type="box" library_version="2">
<description>&lt;b&gt;RESISTOR&lt;/b&gt;&lt;p&gt;
chip</description>
<packageinstances>
<packageinstance name="R0603"/>
</packageinstances>
</package3d>
<package3d name="C0603" urn="urn:adsk.eagle:package:6240338/1" type="box" library_version="2">
<description>&lt;b&gt;CAPACITOR&lt;/b&gt;&lt;p&gt;
chip</description>
<packageinstances>
<packageinstance name="C0603"/>
</packageinstances>
</package3d>
</packages3d>
</library>
<library name="adafruit">
<packages>
<package name="RGBLED5050">
<wire x1="-2.5" y1="2.5" x2="2.5" y2="2.5" width="0.127" layer="21"/>
<wire x1="2.5" y1="2.5" x2="2.5" y2="-1.5" width="0.127" layer="21"/>
<wire x1="2.5" y1="-1.5" x2="2.5" y2="-2.5" width="0.127" layer="21"/>
<wire x1="2.5" y1="-2.5" x2="1.5" y2="-2.5" width="0.127" layer="21"/>
<wire x1="1.5" y1="-2.5" x2="-2.5" y2="-2.5" width="0.127" layer="21"/>
<wire x1="-2.5" y1="-2.5" x2="-2.5" y2="2.5" width="0.127" layer="21"/>
<wire x1="1.5" y1="-2.5" x2="2.5" y2="-1.5" width="0.127" layer="21"/>
<circle x="2.934" y="-2.688" radius="0.1414" width="0.127" layer="21"/>
<circle x="0" y="0" radius="2.1" width="0.127" layer="21"/>
<smd name="1" x="-2" y="1.7" dx="2" dy="1.1" layer="1"/>
<smd name="2" x="-2" y="0" dx="2" dy="1.1" layer="1"/>
<smd name="3" x="-2" y="-1.7" dx="2" dy="1.1" layer="1"/>
<smd name="4" x="2" y="-1.7" dx="2" dy="1.1" layer="1"/>
<smd name="5" x="2" y="0" dx="2" dy="1.1" layer="1"/>
<smd name="6" x="2" y="1.7" dx="2" dy="1.1" layer="1"/>
<text x="-1.7" y="2.9" size="1.27" layer="25" font="vector">&gt;NAME</text>
<text x="-2" y="-4.1" size="1.27" layer="27" font="vector">&gt;VALUE</text>
</package>
</packages>
</library>
<library name="wirepad" urn="urn:adsk.eagle:library:412">
<description>&lt;b&gt;Single Pads&lt;/b&gt;&lt;p&gt;
&lt;author&gt;Created by librarian@cadsoft.de&lt;/author&gt;</description>
<packages>
<package name="2,54/1,1" urn="urn:adsk.eagle:footprint:30818/1" library_version="1">
<description>&lt;b&gt;THROUGH-HOLE PAD&lt;/b&gt;</description>
<wire x1="1.27" y1="1.27" x2="1.27" y2="0.762" width="0.1524" layer="21"/>
<wire x1="1.27" y1="1.27" x2="0.762" y2="1.27" width="0.1524" layer="21"/>
<wire x1="-1.27" y1="1.27" x2="-1.27" y2="0.762" width="0.1524" layer="21"/>
<wire x1="-1.27" y1="1.27" x2="-0.762" y2="1.27" width="0.1524" layer="21"/>
<wire x1="-1.27" y1="-1.27" x2="-1.27" y2="-0.762" width="0.1524" layer="21"/>
<wire x1="-1.27" y1="-1.27" x2="-0.762" y2="-1.27" width="0.1524" layer="21"/>
<wire x1="1.27" y1="-1.27" x2="0.762" y2="-1.27" width="0.1524" layer="21"/>
<wire x1="1.27" y1="-1.27" x2="1.27" y2="-0.762" width="0.1524" layer="21"/>
<circle x="0" y="0" radius="1.016" width="0.1524" layer="51"/>
<pad name="1" x="0" y="0" drill="1.1176" diameter="2.54" shape="octagon"/>
<text x="-1.27" y="1.524" size="1.27" layer="25" ratio="10">&gt;NAME</text>
<text x="0" y="1" size="0.0254" layer="27">&gt;VALUE</text>
</package>
</packages>
<packages3d>
<package3d name="2,54/1,1" urn="urn:adsk.eagle:package:30836/1" type="box" library_version="1">
<description>THROUGH-HOLE PAD</description>
<packageinstances>
<packageinstance name="2,54/1,1"/>
</packageinstances>
</package3d>
</packages3d>
</library>
<library name="transistor" urn="urn:adsk.eagle:library:402">
<description>&lt;b&gt;Transistors&lt;/b&gt;&lt;p&gt;
&lt;author&gt;Created by librarian@cadsoft.de&lt;/author&gt;</description>
<packages>
<package name="SOT23" urn="urn:adsk.eagle:footprint:28669/1" library_version="5">
<description>&lt;b&gt;SOT-23&lt;/b&gt;</description>
<wire x1="1.4224" y1="0.6604" x2="1.4224" y2="-0.6604" width="0.1524" layer="51"/>
<wire x1="1.4224" y1="-0.6604" x2="-1.4224" y2="-0.6604" width="0.1524" layer="51"/>
<wire x1="-1.4224" y1="-0.6604" x2="-1.4224" y2="0.6604" width="0.1524" layer="51"/>
<wire x1="-1.4224" y1="0.6604" x2="1.4224" y2="0.6604" width="0.1524" layer="51"/>
<smd name="3" x="0" y="1.1" dx="1" dy="1.4" layer="1"/>
<smd name="2" x="0.95" y="-1.1" dx="1" dy="1.4" layer="1"/>
<smd name="1" x="-0.95" y="-1.1" dx="1" dy="1.4" layer="1"/>
<text x="-1.905" y="1.905" size="1.27" layer="25">&gt;NAME</text>
<text x="-1.905" y="-3.175" size="1.27" layer="27">&gt;VALUE</text>
<rectangle x1="-0.2286" y1="0.7112" x2="0.2286" y2="1.2954" layer="51"/>
<rectangle x1="0.7112" y1="-1.2954" x2="1.1684" y2="-0.7112" layer="51"/>
<rectangle x1="-1.1684" y1="-1.2954" x2="-0.7112" y2="-0.7112" layer="51"/>
</package>
</packages>
<packages3d>
<package3d name="SOT23" urn="urn:adsk.eagle:package:28738/2" type="model" library_version="5">
<description>SOT-23</description>
<packageinstances>
<packageinstance name="SOT23"/>
</packageinstances>
</package3d>
</packages3d>
</library>
<library name="alicedee">
<packages>
<package name="SO14" urn="urn:adsk.eagle:footprint:38715/1">
<description>&lt;h3&gt;SOIC - 14&lt;/h3&gt;
&lt;p&gt;Specifications:
&lt;ul&gt;&lt;li&gt;Pin count:14&lt;/li&gt;
&lt;/ul&gt;&lt;/p&gt;
&lt;p&gt;Example device(s):
&lt;ul&gt;&lt;li&gt;TXB0104PWR&lt;/li&gt;
&lt;/ul&gt;&lt;/p&gt;</description>
<wire x1="4.2418" y1="1.9463" x2="-4.2418" y2="1.9463" width="0.2032" layer="21"/>
<wire x1="4.3418" y1="-1.9463" x2="4.6228" y2="-1.5653" width="0.2032" layer="21" curve="90"/>
<wire x1="-4.6228" y1="1.4653" x2="-4.2418" y2="1.9463" width="0.2032" layer="21" curve="-90.023829"/>
<wire x1="4.2418" y1="1.9463" x2="4.6228" y2="1.5653" width="0.2032" layer="21" curve="-90.030084"/>
<wire x1="-4.6228" y1="-1.6653" x2="-4.2418" y2="-1.9463" width="0.2032" layer="21" curve="90.060185"/>
<wire x1="-4.2418" y1="-1.9463" x2="4.3418" y2="-1.9463" width="0.2032" layer="21"/>
<wire x1="4.6228" y1="-1.5653" x2="4.6228" y2="1.5653" width="0.2032" layer="21"/>
<wire x1="-4.572" y1="0.6096" x2="-4.572" y2="-0.6604" width="0.2032" layer="21" curve="-180"/>
<wire x1="-4.6228" y1="1.4526" x2="-4.6228" y2="0.6096" width="0.2032" layer="21"/>
<wire x1="-4.6228" y1="-1.6653" x2="-4.6228" y2="-0.6604" width="0.2032" layer="21"/>
<smd name="1" x="-3.81" y="-2.8" dx="0.6" dy="1.2" layer="1"/>
<smd name="2" x="-2.54" y="-2.8" dx="0.6" dy="1.2" layer="1"/>
<smd name="3" x="-1.27" y="-2.8" dx="0.6" dy="1.2" layer="1"/>
<smd name="4" x="0" y="-2.8" dx="0.6" dy="1.2" layer="1"/>
<smd name="5" x="1.27" y="-2.8" dx="0.6" dy="1.2" layer="1"/>
<smd name="6" x="2.54" y="-2.8" dx="0.6" dy="1.2" layer="1"/>
<smd name="7" x="3.81" y="-2.8" dx="0.6" dy="1.2" layer="1"/>
<smd name="8" x="3.81" y="2.8" dx="0.6" dy="1.2" layer="1"/>
<smd name="9" x="2.54" y="2.8" dx="0.6" dy="1.2" layer="1"/>
<smd name="10" x="1.27" y="2.8" dx="0.6" dy="1.2" layer="1"/>
<smd name="11" x="0" y="2.8" dx="0.6" dy="1.2" layer="1"/>
<smd name="12" x="-1.27" y="2.8" dx="0.6" dy="1.2" layer="1"/>
<smd name="13" x="-2.54" y="2.8" dx="0.6" dy="1.2" layer="1"/>
<smd name="14" x="-3.81" y="2.8" dx="0.6" dy="1.2" layer="1"/>
<text x="-5.08" y="0" size="0.6096" layer="25" font="vector" ratio="20" rot="R90" align="bottom-center">&gt;NAME</text>
<text x="5.08" y="0" size="0.6096" layer="27" font="vector" ratio="20" rot="R90" align="top-center">&gt;VALUE</text>
<rectangle x1="-4.064" y1="-3.302" x2="-3.556" y2="-2.2733" layer="51"/>
<rectangle x1="-2.794" y1="-3.302" x2="-2.286" y2="-2.2733" layer="51"/>
<rectangle x1="-1.524" y1="-3.302" x2="-1.016" y2="-2.2733" layer="51"/>
<rectangle x1="-0.254" y1="-3.302" x2="0.254" y2="-2.2733" layer="51"/>
<rectangle x1="1.016" y1="-3.302" x2="1.524" y2="-2.2733" layer="51"/>
<rectangle x1="2.286" y1="-3.302" x2="2.794" y2="-2.2733" layer="51"/>
<rectangle x1="3.556" y1="-3.302" x2="4.064" y2="-2.2733" layer="51"/>
<rectangle x1="-4.064" y1="2.286" x2="-3.556" y2="3.3655" layer="51"/>
<rectangle x1="-2.794" y1="2.286" x2="-2.286" y2="3.302" layer="51"/>
<rectangle x1="-1.524" y1="2.286" x2="-1.016" y2="3.302" layer="51"/>
<rectangle x1="-0.254" y1="2.286" x2="0.254" y2="3.302" layer="51"/>
<rectangle x1="1.016" y1="2.286" x2="1.524" y2="3.302" layer="51"/>
<rectangle x1="2.286" y1="2.286" x2="2.794" y2="3.302" layer="51"/>
<rectangle x1="3.556" y1="2.286" x2="4.064" y2="3.302" layer="51"/>
<circle x="-4.572" y="-2.3114" radius="0.218496875" width="0" layer="21"/>
</package>
</packages>
</library>
<library name="SparkFun-Connectors" urn="urn:adsk.eagle:library:513">
<description>&lt;h3&gt;SparkFun Connectors&lt;/h3&gt;
This library contains electrically-functional connectors. 
&lt;br&gt;
&lt;br&gt;
We've spent an enormous amount of time creating and checking these footprints and parts, but it is &lt;b&gt; the end user's responsibility&lt;/b&gt; to ensure correctness and suitablity for a given componet or application. 
&lt;br&gt;
&lt;br&gt;If you enjoy using this library, please buy one of our products at &lt;a href=" www.sparkfun.com"&gt;SparkFun.com&lt;/a&gt;.
&lt;br&gt;
&lt;br&gt;
&lt;b&gt;Licensing:&lt;/b&gt; Creative Commons ShareAlike 4.0 International - https://creativecommons.org/licenses/by-sa/4.0/ 
&lt;br&gt;
&lt;br&gt;
You are welcome to use this library for commercial purposes. For attribution, we ask that when you begin to sell your device using our footprint, you email us with a link to the product being sold. We want bragging rights that we helped (in a very small part) to create your 8th world wonder. We would like the opportunity to feature your device on our homepage.</description>
<packages>
<package name="JST-4-PTH" urn="urn:adsk.eagle:footprint:37712/1" library_version="1">
<description>&lt;h3&gt;JST Right Angle 4 Pin Plated Through Hole&lt;/h3&gt;
&lt;p&gt;Specifications:
&lt;ul&gt;&lt;li&gt;Pin count: 4&lt;/li&gt;
&lt;li&gt;Pin pitch: 2mm&lt;/li&gt;
&lt;/ul&gt;&lt;/p&gt;
&lt;p&gt;&lt;a href=”https://www.sparkfun.com/datasheets/Prototyping/ePH.pdf”&gt;Datasheet referenced for footprint&lt;/a&gt;&lt;/p&gt;
&lt;p&gt;Example device(s):
&lt;ul&gt;&lt;li&gt;CONN_04&lt;/li&gt;
&lt;/ul&gt;&lt;/p&gt;</description>
<pad name="1" x="-3" y="0" drill="0.7" diameter="1.6"/>
<pad name="2" x="-1" y="0" drill="0.7" diameter="1.6"/>
<pad name="3" x="1" y="0" drill="0.7" diameter="1.6"/>
<pad name="4" x="3" y="0" drill="0.7" diameter="1.6"/>
<text x="-3.4" y="0.7" size="1.27" layer="51">+</text>
<text x="-1.4" y="0.7" size="1.27" layer="51">-</text>
<text x="0.7" y="0.9" size="0.8" layer="51">S</text>
<text x="2.7" y="0.9" size="0.8" layer="51">S</text>
<text x="-1.397" y="3.429" size="0.6096" layer="25" font="vector" ratio="20">&gt;NAME</text>
<text x="-1.651" y="2.54" size="0.6096" layer="27" font="vector" ratio="20">&gt;VALUE</text>
<wire x1="-4.95" y1="-1.6" x2="-4.95" y2="6" width="0.2032" layer="21"/>
<wire x1="-4.95" y1="6" x2="4.95" y2="6" width="0.2032" layer="21"/>
<wire x1="4.95" y1="6" x2="4.95" y2="-1.6" width="0.2032" layer="21"/>
<wire x1="-4.95" y1="-1.6" x2="-4.3" y2="-1.6" width="0.2032" layer="21"/>
<wire x1="4.95" y1="-1.6" x2="4.3" y2="-1.6" width="0.2032" layer="21"/>
<wire x1="-4.3" y1="-1.6" x2="-4.3" y2="0" width="0.2032" layer="21"/>
<wire x1="4.3" y1="-1.6" x2="4.3" y2="0" width="0.2032" layer="21"/>
</package>
</packages>
<packages3d>
<package3d name="JST-4-PTH" urn="urn:adsk.eagle:package:38101/1" type="box" library_version="1">
<description>JST Right Angle 4 Pin Plated Through Hole
Specifications:
Pin count: 4
Pin pitch: 2mm

Datasheet referenced for footprint
Example device(s):
CONN_04
</description>
<packageinstances>
<packageinstance name="JST-4-PTH"/>
</packageinstances>
</package3d>
</packages3d>
</library>
</libraries>
<attributes>
</attributes>
<variantdefs>
</variantdefs>
<classes>
<class number="0" name="default" width="0" drill="0">
</class>
</classes>
<designrules name="oshpark-2layer">
<description language="en">&lt;b&gt;OSH Park Design Rules&lt;/b&gt;
&lt;p&gt;
Please make sure your boards conform to these design rules.
&lt;/p&gt;
&lt;p&gt;
Note, that not all DRC settings must be set by the manufacturer. Several can be adjusted for the design, including those listed on our docs page here. 
&lt;a href=&quot;http://docs.oshpark.com/design-tools/eagle/design-rules-files/&quot;&gt;Adjustable Settings&lt;/a&gt;
&lt;/p&gt;</description>
<param name="layerSetup" value="(1*16)"/>
<param name="mtCopper" value="0.035559375mm 0.0356mm 0.0356mm 0.0356mm 0.0356mm 0.0356mm 0.0356mm 0.0356mm 0.0356mm 0.0356mm 0.0356mm 0.0356mm 0.0356mm 0.0356mm 0.0356mm 0.035559375mm"/>
<param name="mtIsolate" value="1.6mm 0.1499mm 0.2007mm 0.1499mm 0.2007mm 0.1499mm 0.2007mm 0.1499mm 0.2007mm 0.1499mm 0.2007mm 0.1499mm 0.2007mm 0.1499mm 0.2007mm"/>
<param name="mdWireWire" value="6mil"/>
<param name="mdWirePad" value="6mil"/>
<param name="mdWireVia" value="6mil"/>
<param name="mdPadPad" value="6mil"/>
<param name="mdPadVia" value="6mil"/>
<param name="mdViaVia" value="6mil"/>
<param name="mdSmdPad" value="6mil"/>
<param name="mdSmdVia" value="6mil"/>
<param name="mdSmdSmd" value="6mil"/>
<param name="mdViaViaSameLayer" value="8mil"/>
<param name="mnLayersViaInSmd" value="2"/>
<param name="mdCopperDimension" value="15mil"/>
<param name="mdDrill" value="6mil"/>
<param name="mdSmdStop" value="0mil"/>
<param name="msWidth" value="6mil"/>
<param name="msDrill" value="10mil"/>
<param name="msMicroVia" value="10mil"/>
<param name="msBlindViaRatio" value="0.5"/>
<param name="rvPadTop" value="0.25"/>
<param name="rvPadInner" value="0.25"/>
<param name="rvPadBottom" value="0.25"/>
<param name="rvViaOuter" value="0.25"/>
<param name="rvViaInner" value="0.25"/>
<param name="rvMicroViaOuter" value="0.25"/>
<param name="rvMicroViaInner" value="0.25"/>
<param name="rlMinPadTop" value="5mil"/>
<param name="rlMaxPadTop" value="20mil"/>
<param name="rlMinPadInner" value="5mil"/>
<param name="rlMaxPadInner" value="20mil"/>
<param name="rlMinPadBottom" value="5mil"/>
<param name="rlMaxPadBottom" value="20mil"/>
<param name="rlMinViaOuter" value="5mil"/>
<param name="rlMaxViaOuter" value="20mil"/>
<param name="rlMinViaInner" value="5mil"/>
<param name="rlMaxViaInner" value="20mil"/>
<param name="rlMinMicroViaOuter" value="5mil"/>
<param name="rlMaxMicroViaOuter" value="20mil"/>
<param name="rlMinMicroViaInner" value="5mil"/>
<param name="rlMaxMicroViaInner" value="20mil"/>
<param name="psTop" value="-1"/>
<param name="psBottom" value="-1"/>
<param name="psFirst" value="-1"/>
<param name="psElongationLong" value="100"/>
<param name="psElongationOffset" value="100"/>
<param name="mvStopFrame" value="1"/>
<param name="mvCreamFrame" value="0"/>
<param name="mlMinStopFrame" value="2.5mil"/>
<param name="mlMaxStopFrame" value="2.5mil"/>
<param name="mlMinCreamFrame" value="0mil"/>
<param name="mlMaxCreamFrame" value="0mil"/>
<param name="mlViaStopLimit" value="0mil"/>
<param name="srRoundness" value="0"/>
<param name="srMinRoundness" value="0mil"/>
<param name="srMaxRoundness" value="0mil"/>
<param name="slThermalIsolate" value="10mil"/>
<param name="slThermalsForVias" value="0"/>
<param name="dpMaxLengthDifference" value="10mm"/>
<param name="dpGapFactor" value="2.5"/>
<param name="checkAngle" value="0"/>
<param name="checkFont" value="1"/>
<param name="checkRestrict" value="1"/>
<param name="checkStop" value="0"/>
<param name="checkValues" value="0"/>
<param name="checkNames" value="1"/>
<param name="checkWireStubs" value="1"/>
<param name="checkPolygonWidth" value="0"/>
<param name="useDiameter" value="13"/>
<param name="maxErrors" value="50"/>
</designrules>
<autorouter>
<pass name="Default">
<param name="RoutingGrid" value="50mil"/>
<param name="AutoGrid" value="1"/>
<param name="Efforts" value="0"/>
<param name="TopRouterVariant" value="1"/>
<param name="tpViaShape" value="round"/>
<param name="PrefDir.1" value="a"/>
<param name="PrefDir.2" value="0"/>
<param name="PrefDir.3" value="0"/>
<param name="PrefDir.4" value="0"/>
<param name="PrefDir.5" value="0"/>
<param name="PrefDir.6" value="0"/>
<param name="PrefDir.7" value="0"/>
<param name="PrefDir.8" value="0"/>
<param name="PrefDir.9" value="0"/>
<param name="PrefDir.10" value="0"/>
<param name="PrefDir.11" value="0"/>
<param name="PrefDir.12" value="0"/>
<param name="PrefDir.13" value="0"/>
<param name="PrefDir.14" value="0"/>
<param name="PrefDir.15" value="0"/>
<param name="PrefDir.16" value="a"/>
<param name="cfVia" value="8"/>
<param name="cfNonPref" value="5"/>
<param name="cfChangeDir" value="2"/>
<param name="cfOrthStep" value="2"/>
<param name="cfDiagStep" value="3"/>
<param name="cfExtdStep" value="0"/>
<param name="cfBonusStep" value="1"/>
<param name="cfMalusStep" value="1"/>
<param name="cfPadImpact" value="4"/>
<param name="cfSmdImpact" value="4"/>
<param name="cfBusImpact" value="0"/>
<param name="cfHugging" value="3"/>
<param name="cfAvoid" value="4"/>
<param name="cfPolygon" value="10"/>
<param name="cfBase.1" value="0"/>
<param name="cfBase.2" value="1"/>
<param name="cfBase.3" value="1"/>
<param name="cfBase.4" value="1"/>
<param name="cfBase.5" value="1"/>
<param name="cfBase.6" value="1"/>
<param name="cfBase.7" value="1"/>
<param name="cfBase.8" value="1"/>
<param name="cfBase.9" value="1"/>
<param name="cfBase.10" value="1"/>
<param name="cfBase.11" value="1"/>
<param name="cfBase.12" value="1"/>
<param name="cfBase.13" value="1"/>
<param name="cfBase.14" value="1"/>
<param name="cfBase.15" value="1"/>
<param name="cfBase.16" value="0"/>
<param name="mnVias" value="20"/>
<param name="mnSegments" value="9999"/>
<param name="mnExtdSteps" value="9999"/>
<param name="mnRipupLevel" value="10"/>
<param name="mnRipupSteps" value="100"/>
<param name="mnRipupTotal" value="100"/>
</pass>
<pass name="Follow-me" refer="Default" active="yes">
</pass>
<pass name="Busses" refer="Default" active="yes">
<param name="cfNonPref" value="4"/>
<param name="cfBusImpact" value="4"/>
<param name="cfHugging" value="0"/>
<param name="mnVias" value="0"/>
</pass>
<pass name="Route" refer="Default" active="yes">
</pass>
<pass name="Optimize1" refer="Default" active="yes">
<param name="cfVia" value="99"/>
<param name="cfExtdStep" value="10"/>
<param name="cfHugging" value="1"/>
<param name="mnExtdSteps" value="1"/>
<param name="mnRipupLevel" value="0"/>
</pass>
<pass name="Optimize2" refer="Optimize1" active="yes">
<param name="cfNonPref" value="0"/>
<param name="cfChangeDir" value="6"/>
<param name="cfExtdStep" value="0"/>
<param name="cfBonusStep" value="2"/>
<param name="cfMalusStep" value="2"/>
<param name="cfPadImpact" value="2"/>
<param name="cfSmdImpact" value="2"/>
<param name="cfHugging" value="0"/>
</pass>
<pass name="Optimize3" refer="Optimize2" active="yes">
<param name="cfChangeDir" value="8"/>
<param name="cfPadImpact" value="0"/>
<param name="cfSmdImpact" value="0"/>
</pass>
<pass name="Optimize4" refer="Optimize3" active="yes">
<param name="cfChangeDir" value="25"/>
</pass>
</autorouter>
<elements>
<element name="C1" library="adafruit" library_urn="urn:adsk.eagle:library:420" package="C0603" package3d_urn="urn:adsk.eagle:package:6240338/1" value="2.2uF" x="69.85" y="6.0325" smashed="yes" rot="R270">
<attribute name="NAME" x="69.85" y="4.3815" size="1.27" layer="25" rot="R180" align="bottom-center"/>
</element>
<element name="J7" library="SparkFun-Connectors" library_urn="urn:adsk.eagle:library:513" package="JST-4-PTH" package3d_urn="urn:adsk.eagle:package:38101/1" value="" x="6.223" y="6.0325" smashed="yes" rot="R90">
<attribute name="PROD_ID" value="WIRE-13531" x="6.223" y="6.0325" size="1.778" layer="27" rot="R90" display="off"/>
<attribute name="SF_ID" value="PRT-09916" x="6.223" y="6.0325" size="1.778" layer="27" rot="R90" display="off"/>
</element>
<element name="J8" library="SparkFun-Connectors" library_urn="urn:adsk.eagle:library:513" package="JST-4-PTH" package3d_urn="urn:adsk.eagle:package:38101/1" value="" x="120.777" y="6.0325" smashed="yes" rot="R270">
<attribute name="PROD_ID" value="WIRE-13531" x="120.777" y="6.0325" size="1.778" layer="27" rot="R270" display="off"/>
<attribute name="SF_ID" value="PRT-09916" x="120.777" y="6.0325" size="1.778" layer="27" rot="R270" display="off"/>
</element>
<element name="LED1" library="adafruit" package="RGBLED5050" value="RGBLED5050" x="15.875" y="6.0325" smashed="yes" rot="R270">
<attribute name="NAME" x="14.175" y="1.5665" size="1.27" layer="25" font="vector" ratio="10"/>
</element>
<element name="LED2" library="adafruit" package="RGBLED5050" value="RGBLED5050" x="48.26" y="6.0325" smashed="yes" rot="R270">
<attribute name="NAME" x="46.433" y="1.5665" size="1.27" layer="25" font="vector" ratio="10"/>
</element>
<element name="R1" library="adafruit" library_urn="urn:adsk.eagle:library:420" package="R0603" package3d_urn="urn:adsk.eagle:package:6240565/1" value="33" x="104.14" y="6.0325" smashed="yes" rot="R90">
<attribute name="NAME" x="103.378" y="3.1115" size="1.27" layer="25"/>
</element>
<element name="R2" library="adafruit" library_urn="urn:adsk.eagle:library:420" package="R0603" package3d_urn="urn:adsk.eagle:package:6240565/1" value="33" x="35.56" y="6.985" smashed="yes" rot="R180">
<attribute name="NAME" x="36.449" y="5.842" size="1.27" layer="25" rot="R180"/>
</element>
<element name="C2" library="adafruit" library_urn="urn:adsk.eagle:library:420" package="C0603" package3d_urn="urn:adsk.eagle:package:6240338/1" value="2.2uF" x="8.89" y="6.0325" smashed="yes" rot="R270">
<attribute name="NAME" x="8.89" y="3.1115" size="1.27" layer="25" font="vector" ratio="10" align="bottom-center"/>
</element>
<element name="C3" library="adafruit" library_urn="urn:adsk.eagle:library:420" package="C0603" package3d_urn="urn:adsk.eagle:package:6240338/1" value="2.2uF" x="118.11" y="6.0325" smashed="yes" rot="R270">
<attribute name="NAME" x="118.11" y="3.2385" size="1.27" layer="25" ratio="10" align="bottom-center"/>
</element>
<element name="PAD1" library="wirepad" library_urn="urn:adsk.eagle:library:412" package="2,54/1,1" package3d_urn="urn:adsk.eagle:package:30836/1" value="WIREPAD2,54/1,1" x="1.651" y="1.651" smashed="yes" rot="R90">
<attribute name="VALUE" x="-1.149" y="1.551" size="0.0254" layer="27" rot="R90"/>
</element>
<element name="PAD2" library="wirepad" library_urn="urn:adsk.eagle:library:412" package="2,54/1,1" package3d_urn="urn:adsk.eagle:package:30836/1" value="WIREPAD2,54/1,1" x="1.651" y="4.572" smashed="yes" rot="R90">
<attribute name="VALUE" x="-1.149" y="4.472" size="0.0254" layer="27" rot="R90"/>
</element>
<element name="PAD3" library="wirepad" library_urn="urn:adsk.eagle:library:412" package="2,54/1,1" package3d_urn="urn:adsk.eagle:package:30836/1" value="WIREPAD2,54/1,1" x="125.349" y="10.414" smashed="yes" rot="R90">
<attribute name="VALUE" x="124.349" y="10.414" size="0.0254" layer="27" rot="R90"/>
</element>
<element name="PAD4" library="wirepad" library_urn="urn:adsk.eagle:library:412" package="2,54/1,1" package3d_urn="urn:adsk.eagle:package:30836/1" value="WIREPAD2,54/1,1" x="125.349" y="7.493" smashed="yes" rot="R90">
<attribute name="VALUE" x="122.549" y="7.393" size="0.0254" layer="27" rot="R90"/>
</element>
<element name="PAD5" library="wirepad" library_urn="urn:adsk.eagle:library:412" package="2,54/1,1" package3d_urn="urn:adsk.eagle:package:30836/1" value="WIREPAD2,54/1,1" x="125.349" y="4.572" smashed="yes" rot="R90">
<attribute name="VALUE" x="122.549" y="4.472" size="0.0254" layer="27" rot="R90"/>
</element>
<element name="PAD6" library="wirepad" library_urn="urn:adsk.eagle:library:412" package="2,54/1,1" package3d_urn="urn:adsk.eagle:package:30836/1" value="WIREPAD2,54/1,1" x="125.349" y="1.651" smashed="yes" rot="R90">
<attribute name="VALUE" x="122.549" y="1.551" size="0.0254" layer="27" rot="R90"/>
</element>
<element name="LED3" library="adafruit" package="RGBLED5050" value="RGBLED5050" x="86.995" y="6.0325" smashed="yes" rot="R270">
<attribute name="NAME" x="85.168" y="1.5665" size="1.27" layer="25" font="vector"/>
</element>
<element name="T1" library="transistor" library_urn="urn:adsk.eagle:library:402" package="SOT23" package3d_urn="urn:adsk.eagle:package:28738/2" value="BC849" x="24.13" y="6.0325" smashed="yes">
<attribute name="NAME" x="23.241" y="2.7305" size="1.27" layer="25"/>
</element>
<element name="LED4" library="adafruit" package="RGBLED5050" value="RGBLED5050" x="26.67" y="6.0325" smashed="yes" rot="R270">
<attribute name="NAME" x="24.97" y="1.5665" size="1.27" layer="25" font="vector"/>
</element>
<element name="LED5" library="adafruit" package="RGBLED5050" value="RGBLED5050" x="59.055" y="6.0325" smashed="yes" rot="R270">
<attribute name="NAME" x="57.228" y="1.5665" size="1.27" layer="25" font="vector"/>
</element>
<element name="LED6" library="adafruit" package="RGBLED5050" value="RGBLED5050" x="98.425" y="6.0325" smashed="yes" rot="R270">
<attribute name="NAME" x="96.598" y="1.5665" size="1.27" layer="25" font="vector"/>
</element>
<element name="T2" library="transistor" library_urn="urn:adsk.eagle:library:402" package="SOT23" package3d_urn="urn:adsk.eagle:package:28738/2" value="BC849" x="46.99" y="6.0325" smashed="yes" rot="R90">
<attribute name="NAME" x="45.72" y="3.3655" size="1.27" layer="25" rot="R90"/>
</element>
<element name="LED7" library="adafruit" package="RGBLED5050" value="RGBLED5050" x="37.465" y="6.0325" smashed="yes" rot="R270">
<attribute name="NAME" x="35.638" y="1.5665" size="1.27" layer="25" font="vector"/>
</element>
<element name="LED8" library="adafruit" package="RGBLED5050" value="RGBLED5050" x="75.565" y="6.0325" smashed="yes" rot="R270">
<attribute name="NAME" x="73.738" y="1.5665" size="1.27" layer="25" font="vector"/>
</element>
<element name="LED9" library="adafruit" package="RGBLED5050" value="RGBLED5050" x="109.855" y="6.0325" smashed="yes" rot="R270">
<attribute name="NAME" x="108.028" y="1.5665" size="1.27" layer="25" font="vector"/>
</element>
<element name="T3" library="transistor" library_urn="urn:adsk.eagle:library:402" package="SOT23" package3d_urn="urn:adsk.eagle:package:28738/2" value="BC849" x="92.71" y="6.0325" smashed="yes">
<attribute name="NAME" x="91.821" y="2.7305" size="1.27" layer="25"/>
</element>
<element name="S1" library="alicedee" package="SO14" value="" x="58.42" y="6.0325" smashed="yes" rot="R270">
<attribute name="NAME" x="58.42" y="11.1125" size="0.6096" layer="25" font="vector" ratio="20" align="bottom-center"/>
<attribute name="VALUE" x="58.42" y="0.9525" size="0.6096" layer="27" font="vector" ratio="20" align="top-center"/>
</element>
<element name="R3" library="adafruit" library_urn="urn:adsk.eagle:library:420" package="R0603" package3d_urn="urn:adsk.eagle:package:6240565/1" value="4.7K" x="0" y="-10.16" smashed="yes">
<attribute name="NAME" x="-0.889" y="-9.271" size="1.27" layer="25"/>
<attribute name="VALUE" x="-0.889" y="-12.192" size="1.27" layer="27"/>
</element>
<element name="R4" library="adafruit" library_urn="urn:adsk.eagle:library:420" package="R0603" package3d_urn="urn:adsk.eagle:package:6240565/1" value="6.8K" x="0" y="-16.51" smashed="yes">
<attribute name="NAME" x="-0.889" y="-15.621" size="1.27" layer="25"/>
<attribute name="VALUE" x="-0.889" y="-18.542" size="1.27" layer="27"/>
</element>
<element name="C4" library="adafruit" library_urn="urn:adsk.eagle:library:420" package="C0603" package3d_urn="urn:adsk.eagle:package:6240338/1" value="20pF" x="0" y="-22.86" smashed="yes">
<attribute name="NAME" x="-0.889" y="-22.098" size="1.27" layer="25"/>
<attribute name="VALUE" x="-0.889" y="-24.892" size="1.27" layer="27"/>
</element>
<element name="C5" library="adafruit" library_urn="urn:adsk.eagle:library:420" package="C0603" package3d_urn="urn:adsk.eagle:package:6240338/1" value="20pF" x="0" y="-29.21" smashed="yes">
<attribute name="NAME" x="-0.889" y="-28.448" size="1.27" layer="25"/>
<attribute name="VALUE" x="-0.889" y="-31.242" size="1.27" layer="27"/>
</element>
<element name="R5" library="adafruit" library_urn="urn:adsk.eagle:library:420" package="R0603" package3d_urn="urn:adsk.eagle:package:6240565/1" value="2K" x="0" y="-35.56" smashed="yes">
<attribute name="NAME" x="-0.889" y="-34.671" size="1.27" layer="25"/>
<attribute name="VALUE" x="-0.889" y="-37.592" size="1.27" layer="27"/>
</element>
<element name="R6" library="adafruit" library_urn="urn:adsk.eagle:library:420" package="R0603" package3d_urn="urn:adsk.eagle:package:6240565/1" value="2K" x="0" y="-41.91" smashed="yes">
<attribute name="NAME" x="-0.889" y="-41.021" size="1.27" layer="25"/>
<attribute name="VALUE" x="-0.889" y="-43.942" size="1.27" layer="27"/>
</element>
<element name="R7" library="adafruit" library_urn="urn:adsk.eagle:library:420" package="R0603" package3d_urn="urn:adsk.eagle:package:6240565/1" value="2K" x="0" y="-48.26" smashed="yes">
<attribute name="NAME" x="-0.889" y="-47.371" size="1.27" layer="25"/>
<attribute name="VALUE" x="-0.889" y="-50.292" size="1.27" layer="27"/>
</element>
<element name="PAD7" library="wirepad" library_urn="urn:adsk.eagle:library:412" package="2,54/1,1" package3d_urn="urn:adsk.eagle:package:30836/1" value="WIREPAD2,54/1,1" x="1.651" y="10.414" smashed="yes">
<attribute name="NAME" x="0.381" y="11.938" size="1.27" layer="25" ratio="10"/>
<attribute name="VALUE" x="1.651" y="11.414" size="0.0254" layer="27"/>
</element>
<element name="PAD8" library="wirepad" library_urn="urn:adsk.eagle:library:412" package="2,54/1,1" package3d_urn="urn:adsk.eagle:package:30836/1" value="WIREPAD2,54/1,1" x="1.651" y="7.493" smashed="yes">
<attribute name="NAME" x="0.381" y="9.017" size="1.27" layer="25" ratio="10"/>
<attribute name="VALUE" x="1.651" y="8.493" size="0.0254" layer="27"/>
</element>
</elements>
<signals>
<signal name="12V">
<contactref element="LED3" pad="2"/>
<contactref element="LED3" pad="1"/>
<contactref element="LED3" pad="3"/>
<contactref element="LED6" pad="2"/>
<contactref element="LED6" pad="1"/>
<contactref element="LED6" pad="3"/>
<contactref element="LED9" pad="2"/>
<contactref element="LED9" pad="1"/>
<contactref element="LED9" pad="3"/>
<contactref element="R3" pad="2"/>
<contactref element="J7" pad="1"/>
<contactref element="J8" pad="1"/>
<contactref element="PAD6" pad="1"/>
<contactref element="PAD1" pad="1"/>
<contactref element="C2" pad="1"/>
<contactref element="C3" pad="1"/>
<wire x1="125.349" y1="1.651" x2="120.777" y2="9.0325" width="0" layer="19" extent="1-1"/>
<wire x1="118.11" y1="6.8825" x2="120.777" y2="9.0325" width="0" layer="19" extent="1-1"/>
<wire x1="111.555" y1="8.0325" x2="118.11" y2="6.8825" width="0" layer="19" extent="1-1"/>
<wire x1="109.855" y1="8.0325" x2="111.555" y2="8.0325" width="0" layer="19" extent="1-1"/>
<wire x1="108.155" y1="8.0325" x2="109.855" y2="8.0325" width="0" layer="19" extent="1-1"/>
<wire x1="100.125" y1="8.0325" x2="108.155" y2="8.0325" width="0" layer="19" extent="1-1"/>
<wire x1="98.425" y1="8.0325" x2="100.125" y2="8.0325" width="0" layer="19" extent="1-1"/>
<wire x1="96.725" y1="8.0325" x2="98.425" y2="8.0325" width="0" layer="19" extent="1-1"/>
<wire x1="88.695" y1="8.0325" x2="96.725" y2="8.0325" width="0" layer="19" extent="1-1"/>
<wire x1="86.995" y1="8.0325" x2="88.695" y2="8.0325" width="0" layer="19" extent="1-1"/>
<wire x1="85.295" y1="8.0325" x2="86.995" y2="8.0325" width="0" layer="19" extent="1-1"/>
<wire x1="8.89" y1="6.8825" x2="85.295" y2="8.0325" width="0" layer="19" extent="1-1"/>
<wire x1="6.223" y1="3.0325" x2="8.89" y2="6.8825" width="0" layer="19" extent="1-1"/>
<wire x1="1.651" y1="1.651" x2="6.223" y2="3.0325" width="0" layer="19" extent="1-1"/>
<wire x1="0.85" y1="-10.16" x2="1.651" y2="1.651" width="0" layer="19" extent="1-1"/>
</signal>
<signal name="GND">
<contactref element="T1" pad="2"/>
<contactref element="T2" pad="2"/>
<contactref element="T3" pad="2"/>
<contactref element="R4" pad="1"/>
<contactref element="S1" pad="4"/>
<contactref element="C1" pad="2"/>
<contactref element="S1" pad="8"/>
<contactref element="C4" pad="2"/>
<contactref element="C5" pad="2"/>
<contactref element="J8" pad="2"/>
<contactref element="J7" pad="2"/>
<contactref element="PAD5" pad="1"/>
<contactref element="PAD2" pad="1"/>
<contactref element="C2" pad="2"/>
<contactref element="C3" pad="2"/>
<wire x1="120.777" y1="7.0325" x2="125.349" y2="4.572" width="0" layer="19" extent="1-1"/>
<wire x1="118.11" y1="5.1825" x2="120.777" y2="7.0325" width="0" layer="19" extent="1-1"/>
<wire x1="93.66" y1="4.9325" x2="118.11" y2="5.1825" width="0" layer="19" extent="1-1"/>
<wire x1="69.85" y1="5.1825" x2="93.66" y2="4.9325" width="0" layer="19" extent="1-1"/>
<wire x1="48.09" y1="6.9825" x2="69.85" y2="5.1825" width="0" layer="19" extent="1-1"/>
<wire x1="25.08" y1="4.9325" x2="48.09" y2="6.9825" width="0" layer="19" extent="1-1"/>
<wire x1="8.89" y1="5.1825" x2="25.08" y2="4.9325" width="0" layer="19" extent="1-1"/>
<wire x1="6.223" y1="5.0325" x2="8.89" y2="5.1825" width="0" layer="19" extent="1-1"/>
<wire x1="1.651" y1="4.572" x2="6.223" y2="5.0325" width="0" layer="19" extent="1-1"/>
<wire x1="61.22" y1="2.2225" x2="8.89" y2="5.1825" width="0" layer="19" extent="1-1"/>
<wire x1="55.62" y1="6.0325" x2="61.22" y2="2.2225" width="0" layer="19" extent="1-1"/>
<wire x1="-0.85" y1="-16.51" x2="55.62" y2="6.0325" width="0" layer="19" extent="1-1"/>
<wire x1="0.85" y1="-22.86" x2="-0.85" y2="-16.51" width="0" layer="19" extent="1-1"/>
<wire x1="0.85" y1="-29.21" x2="0.85" y2="-22.86" width="0" layer="19" extent="1-1"/>
</signal>
<signal name="DIN">
<contactref element="S1" pad="1"/>
<contactref element="C5" pad="1"/>
<contactref element="J7" pad="3"/>
<contactref element="PAD7" pad="1"/>
<wire x1="-0.85" y1="-29.21" x2="1.651" y2="10.414" width="0" layer="19" extent="1-1"/>
<wire x1="55.62" y1="9.8425" x2="-0.85" y2="-29.21" width="0" layer="19" extent="1-1"/>
<wire x1="6.223" y1="7.0325" x2="55.62" y2="9.8425" width="0" layer="19" extent="1-1"/>
</signal>
<signal name="DOUT">
<contactref element="R1" pad="2"/>
<contactref element="J8" pad="3"/>
<contactref element="PAD3" pad="1"/>
<wire x1="104.14" y1="6.8825" x2="120.777" y2="5.0325" width="0" layer="19" extent="1-1"/>
<wire x1="125.349" y1="10.414" x2="104.14" y2="6.8825" width="0" layer="19" extent="1-1"/>
</signal>
<signal name="DOUT-R">
<contactref element="S1" pad="14"/>
<contactref element="R1" pad="1"/>
<wire x1="61.22" y1="9.8425" x2="104.14" y2="5.1825" width="0" layer="19" extent="1-1"/>
</signal>
<signal name="N$1">
<contactref element="LED3" pad="4"/>
<contactref element="LED2" pad="3"/>
<wire x1="46.56" y1="8.0325" x2="85.295" y2="4.0325" width="0" layer="19" extent="1-1"/>
</signal>
<signal name="N$2">
<contactref element="LED3" pad="6"/>
<contactref element="LED2" pad="1"/>
<wire x1="49.96" y1="8.0325" x2="88.695" y2="4.0325" width="0" layer="19" extent="1-1"/>
</signal>
<signal name="N$3">
<contactref element="LED3" pad="5"/>
<contactref element="LED2" pad="2"/>
<wire x1="48.26" y1="8.0325" x2="86.995" y2="4.0325" width="0" layer="19" extent="1-1"/>
</signal>
<signal name="N$4">
<contactref element="LED2" pad="5"/>
<contactref element="LED1" pad="2"/>
<wire x1="15.875" y1="8.0325" x2="48.26" y2="4.0325" width="0" layer="19" extent="1-1"/>
</signal>
<signal name="N$5">
<contactref element="LED2" pad="6"/>
<contactref element="LED1" pad="1"/>
<wire x1="17.575" y1="8.0325" x2="49.96" y2="4.0325" width="0" layer="19" extent="1-1"/>
</signal>
<signal name="N$6">
<contactref element="LED2" pad="4"/>
<contactref element="LED1" pad="3"/>
<wire x1="14.175" y1="8.0325" x2="46.56" y2="4.0325" width="0" layer="19" extent="1-1"/>
</signal>
<signal name="N$7">
<contactref element="LED1" pad="5"/>
<contactref element="LED1" pad="6"/>
<contactref element="T1" pad="3"/>
<contactref element="LED1" pad="4"/>
<wire x1="17.575" y1="4.0325" x2="24.13" y2="7.1325" width="0" layer="19" extent="1-1"/>
<wire x1="15.875" y1="4.0325" x2="17.575" y2="4.0325" width="0" layer="19" extent="1-1"/>
<wire x1="14.175" y1="4.0325" x2="15.875" y2="4.0325" width="0" layer="19" extent="1-1"/>
</signal>
<signal name="N$9">
<contactref element="LED6" pad="4"/>
<contactref element="LED5" pad="3"/>
<wire x1="57.355" y1="8.0325" x2="96.725" y2="4.0325" width="0" layer="19" extent="1-1"/>
</signal>
<signal name="N$10">
<contactref element="LED6" pad="6"/>
<contactref element="LED5" pad="1"/>
<wire x1="60.755" y1="8.0325" x2="100.125" y2="4.0325" width="0" layer="19" extent="1-1"/>
</signal>
<signal name="N$11">
<contactref element="LED6" pad="5"/>
<contactref element="LED5" pad="2"/>
<wire x1="59.055" y1="8.0325" x2="98.425" y2="4.0325" width="0" layer="19" extent="1-1"/>
</signal>
<signal name="N$12">
<contactref element="LED5" pad="5"/>
<contactref element="LED4" pad="2"/>
<wire x1="26.67" y1="8.0325" x2="59.055" y2="4.0325" width="0" layer="19" extent="1-1"/>
</signal>
<signal name="N$13">
<contactref element="LED5" pad="6"/>
<contactref element="LED4" pad="1"/>
<wire x1="28.37" y1="8.0325" x2="60.755" y2="4.0325" width="0" layer="19" extent="1-1"/>
</signal>
<signal name="N$14">
<contactref element="LED5" pad="4"/>
<contactref element="LED4" pad="3"/>
<wire x1="24.97" y1="8.0325" x2="57.355" y2="4.0325" width="0" layer="19" extent="1-1"/>
</signal>
<signal name="N$15">
<contactref element="LED4" pad="5"/>
<contactref element="LED4" pad="6"/>
<contactref element="T2" pad="3"/>
<contactref element="LED4" pad="4"/>
<wire x1="28.37" y1="4.0325" x2="45.89" y2="6.0325" width="0" layer="19" extent="1-1"/>
<wire x1="26.67" y1="4.0325" x2="28.37" y2="4.0325" width="0" layer="19" extent="1-1"/>
<wire x1="24.97" y1="4.0325" x2="26.67" y2="4.0325" width="0" layer="19" extent="1-1"/>
</signal>
<signal name="N$17">
<contactref element="LED9" pad="4"/>
<contactref element="LED8" pad="3"/>
<wire x1="73.865" y1="8.0325" x2="108.155" y2="4.0325" width="0" layer="19" extent="1-1"/>
</signal>
<signal name="N$18">
<contactref element="LED9" pad="6"/>
<contactref element="LED8" pad="1"/>
<wire x1="77.265" y1="8.0325" x2="111.555" y2="4.0325" width="0" layer="19" extent="1-1"/>
</signal>
<signal name="N$19">
<contactref element="LED9" pad="5"/>
<contactref element="LED8" pad="2"/>
<wire x1="75.565" y1="8.0325" x2="109.855" y2="4.0325" width="0" layer="19" extent="1-1"/>
</signal>
<signal name="N$20">
<contactref element="LED8" pad="5"/>
<contactref element="LED7" pad="2"/>
<wire x1="37.465" y1="8.0325" x2="75.565" y2="4.0325" width="0" layer="19" extent="1-1"/>
</signal>
<signal name="N$21">
<contactref element="LED8" pad="6"/>
<contactref element="LED7" pad="1"/>
<wire x1="39.165" y1="8.0325" x2="77.265" y2="4.0325" width="0" layer="19" extent="1-1"/>
</signal>
<signal name="N$22">
<contactref element="LED8" pad="4"/>
<contactref element="LED7" pad="3"/>
<wire x1="35.765" y1="8.0325" x2="73.865" y2="4.0325" width="0" layer="19" extent="1-1"/>
</signal>
<signal name="N$23">
<contactref element="LED7" pad="5"/>
<contactref element="LED7" pad="6"/>
<contactref element="T3" pad="3"/>
<contactref element="LED7" pad="4"/>
<wire x1="39.165" y1="4.0325" x2="92.71" y2="7.1325" width="0" layer="19" extent="1-1"/>
<wire x1="37.465" y1="4.0325" x2="39.165" y2="4.0325" width="0" layer="19" extent="1-1"/>
<wire x1="35.765" y1="4.0325" x2="37.465" y2="4.0325" width="0" layer="19" extent="1-1"/>
</signal>
<signal name="N$8">
<contactref element="S1" pad="13"/>
<contactref element="R2" pad="1"/>
<wire x1="61.22" y1="8.5725" x2="36.41" y2="6.985" width="0" layer="19" extent="1-1"/>
</signal>
<signal name="COUT">
<contactref element="R2" pad="2"/>
<contactref element="J8" pad="4"/>
<contactref element="PAD4" pad="1"/>
<wire x1="120.777" y1="3.0325" x2="125.349" y2="7.493" width="0" layer="19" extent="1-1"/>
<wire x1="34.71" y1="6.985" x2="120.777" y2="3.0325" width="0" layer="19" extent="1-1"/>
</signal>
<signal name="CIN">
<contactref element="S1" pad="2"/>
<contactref element="C4" pad="1"/>
<contactref element="J7" pad="4"/>
<contactref element="PAD8" pad="1"/>
<wire x1="-0.85" y1="-22.86" x2="1.651" y2="7.493" width="0" layer="19" extent="1-1"/>
<wire x1="55.62" y1="8.5725" x2="-0.85" y2="-22.86" width="0" layer="19" extent="1-1"/>
<wire x1="6.223" y1="9.0325" x2="55.62" y2="8.5725" width="0" layer="19" extent="1-1"/>
</signal>
<signal name="N$16">
<contactref element="S1" pad="12"/>
</signal>
<signal name="5V">
<contactref element="R4" pad="2"/>
<contactref element="R3" pad="1"/>
<contactref element="S1" pad="9"/>
<contactref element="C1" pad="1"/>
<wire x1="61.22" y1="3.4925" x2="69.85" y2="6.8825" width="0" layer="19" extent="1-1"/>
<wire x1="-0.85" y1="-10.16" x2="61.22" y2="3.4925" width="0" layer="19" extent="1-1"/>
<wire x1="0.85" y1="-16.51" x2="-0.85" y2="-10.16" width="0" layer="19" extent="1-1"/>
</signal>
<signal name="RED">
<contactref element="S1" pad="5"/>
<contactref element="R5" pad="1"/>
<contactref element="T1" pad="1"/>
<wire x1="55.62" y1="4.7625" x2="-0.85" y2="-35.56" width="0" layer="19" extent="1-1"/>
<wire x1="23.18" y1="4.9325" x2="55.62" y2="4.7625" width="0" layer="19" extent="1-1"/>
</signal>
<signal name="GREEN">
<contactref element="S1" pad="6"/>
<contactref element="R6" pad="1"/>
<contactref element="T2" pad="1"/>
<wire x1="55.62" y1="3.4925" x2="48.09" y2="5.0825" width="0" layer="19" extent="1-1"/>
<wire x1="-0.85" y1="-41.91" x2="55.62" y2="3.4925" width="0" layer="19" extent="1-1"/>
</signal>
<signal name="BLUE">
<contactref element="S1" pad="7"/>
<contactref element="R7" pad="1"/>
<contactref element="T3" pad="1"/>
<wire x1="55.62" y1="2.2225" x2="91.76" y2="4.9325" width="0" layer="19" extent="1-1"/>
<wire x1="-0.85" y1="-48.26" x2="55.62" y2="2.2225" width="0" layer="19" extent="1-1"/>
</signal>
<signal name="VOUT">
<contactref element="S1" pad="10"/>
<contactref element="R5" pad="2"/>
<contactref element="R6" pad="2"/>
<contactref element="R7" pad="2"/>
<wire x1="0.85" y1="-41.91" x2="0.85" y2="-48.26" width="0" layer="19" extent="1-1"/>
<wire x1="0.85" y1="-35.56" x2="0.85" y2="-41.91" width="0" layer="19" extent="1-1"/>
<wire x1="61.22" y1="4.7625" x2="0.85" y2="-35.56" width="0" layer="19" extent="1-1"/>
</signal>
</signals>
<mfgpreviewcolors>
<mfgpreviewcolor name="soldermaskcolor" color="0xC8008000"/>
<mfgpreviewcolor name="silkscreencolor" color="0xFFFEFEFE"/>
<mfgpreviewcolor name="backgroundcolor" color="0xFF282828"/>
<mfgpreviewcolor name="coppercolor" color="0xFFFFBF00"/>
<mfgpreviewcolor name="substratecolor" color="0xFF786E46"/>
</mfgpreviewcolors>
</board>
</drawing>
<compatibility>
<note version="8.2" severity="warning">
Since Version 8.2, EAGLE supports online libraries. The ids
of those online libraries will not be understood (or retained)
with this version.
</note>
<note version="8.3" severity="warning">
Since Version 8.3, EAGLE supports URNs for individual library
assets (packages, symbols, and devices). The URNs of those assets
will not be understood (or retained) with this version.
</note>
<note version="8.3" severity="warning">
Since Version 8.3, EAGLE supports the association of 3D packages
with devices in libraries, schematics, and board files. Those 3D
packages will not be understood (or retained) with this version.
</note>
</compatibility>
</eagle>
