<?xml version="1.0" encoding="utf-8"?>
<!DOCTYPE eagle SYSTEM "eagle.dtd">
<eagle version="7.0.0">
<drawing>
<settings>
<setting alwaysvectorfont="yes"/>
<setting verticaltext="up"/>
</settings>
<grid distance="1" unitdist="mm" unit="mm" style="lines" multiple="1" display="yes" altdistance="0.25" altunitdist="mm" altunit="mm"/>
<layers>
<layer number="1" name="Top" color="4" fill="1" visible="yes" active="yes"/>
<layer number="16" name="Bottom" color="1" fill="1" visible="yes" active="yes"/>
<layer number="17" name="Pads" color="2" fill="1" visible="yes" active="yes"/>
<layer number="18" name="Vias" color="2" fill="1" visible="yes" active="yes"/>
<layer number="19" name="Unrouted" color="6" fill="1" visible="yes" active="yes"/>
<layer number="20" name="Dimension" color="15" fill="1" visible="yes" active="yes"/>
<layer number="21" name="tPlace" color="7" fill="1" visible="yes" active="yes"/>
<layer number="22" name="bPlace" color="7" fill="1" visible="yes" active="yes"/>
<layer number="23" name="tOrigins" color="15" fill="1" visible="yes" active="yes"/>
<layer number="24" name="bOrigins" color="15" fill="1" visible="yes" active="yes"/>
<layer number="25" name="tNames" color="7" fill="1" visible="yes" active="yes"/>
<layer number="26" name="bNames" color="7" fill="1" visible="yes" active="yes"/>
<layer number="27" name="tValues" color="7" fill="1" visible="yes" active="yes"/>
<layer number="28" name="bValues" color="7" fill="1" visible="yes" active="yes"/>
<layer number="29" name="tStop" color="7" fill="3" visible="no" active="yes"/>
<layer number="30" name="bStop" color="7" fill="6" visible="no" active="yes"/>
<layer number="31" name="tCream" color="7" fill="4" visible="no" active="yes"/>
<layer number="32" name="bCream" color="7" fill="5" visible="no" active="yes"/>
<layer number="33" name="tFinish" color="6" fill="3" visible="no" active="yes"/>
<layer number="34" name="bFinish" color="6" fill="6" visible="no" active="yes"/>
<layer number="35" name="tGlue" color="7" fill="4" visible="no" active="yes"/>
<layer number="36" name="bGlue" color="7" fill="5" visible="no" active="yes"/>
<layer number="37" name="tTest" color="7" fill="1" visible="no" active="yes"/>
<layer number="38" name="bTest" color="7" fill="1" visible="no" active="yes"/>
<layer number="39" name="tKeepout" color="4" fill="11" visible="yes" active="yes"/>
<layer number="40" name="bKeepout" color="1" fill="11" visible="yes" active="yes"/>
<layer number="41" name="tRestrict" color="4" fill="10" visible="yes" active="yes"/>
<layer number="42" name="bRestrict" color="1" fill="10" visible="yes" active="yes"/>
<layer number="43" name="vRestrict" color="2" fill="10" visible="yes" active="yes"/>
<layer number="44" name="Drills" color="7" fill="1" visible="no" active="yes"/>
<layer number="45" name="Holes" color="7" fill="1" visible="no" active="yes"/>
<layer number="46" name="Milling" color="3" fill="1" visible="no" active="yes"/>
<layer number="47" name="Measures" color="7" fill="1" visible="no" active="yes"/>
<layer number="48" name="Document" color="7" fill="1" visible="yes" active="yes"/>
<layer number="49" name="Reference" color="7" fill="1" visible="yes" active="yes"/>
<layer number="50" name="dxf" color="7" fill="1" visible="no" active="no"/>
<layer number="51" name="tDocu" color="7" fill="1" visible="yes" active="yes"/>
<layer number="52" name="bDocu" color="7" fill="1" visible="yes" active="yes"/>
<layer number="53" name="tGND_GNDA" color="7" fill="9" visible="no" active="no"/>
<layer number="54" name="bGND_GNDA" color="1" fill="9" visible="no" active="no"/>
<layer number="56" name="wert" color="7" fill="1" visible="no" active="no"/>
<layer number="57" name="tCAD" color="7" fill="1" visible="no" active="no"/>
<layer number="91" name="Nets" color="2" fill="1" visible="no" active="no"/>
<layer number="92" name="Busses" color="1" fill="1" visible="no" active="no"/>
<layer number="93" name="Pins" color="2" fill="1" visible="no" active="no"/>
<layer number="94" name="Symbols" color="4" fill="1" visible="no" active="no"/>
<layer number="95" name="Names" color="7" fill="1" visible="no" active="no"/>
<layer number="96" name="Values" color="7" fill="1" visible="no" active="no"/>
<layer number="97" name="Info" color="7" fill="1" visible="no" active="no"/>
<layer number="98" name="Guide" color="6" fill="1" visible="no" active="no"/>
<layer number="100" name="Muster" color="7" fill="1" visible="no" active="no"/>
<layer number="101" name="Patch_Top" color="12" fill="4" visible="no" active="yes"/>
<layer number="102" name="Vscore" color="7" fill="1" visible="no" active="yes"/>
<layer number="103" name="tMap" color="7" fill="1" visible="no" active="yes"/>
<layer number="104" name="Name" color="16" fill="1" visible="no" active="yes"/>
<layer number="105" name="tPlate" color="7" fill="1" visible="no" active="yes"/>
<layer number="106" name="bPlate" color="7" fill="1" visible="no" active="yes"/>
<layer number="107" name="Crop" color="7" fill="1" visible="no" active="yes"/>
<layer number="108" name="fp8" color="7" fill="1" visible="no" active="yes"/>
<layer number="109" name="fp9" color="7" fill="1" visible="no" active="yes"/>
<layer number="110" name="fp0" color="7" fill="1" visible="no" active="yes"/>
<layer number="111" name="LPC17xx" color="7" fill="1" visible="yes" active="yes"/>
<layer number="112" name="tSilk" color="7" fill="1" visible="yes" active="yes"/>
<layer number="116" name="Patch_BOT" color="9" fill="4" visible="no" active="yes"/>
<layer number="117" name="mPads" color="7" fill="1" visible="yes" active="yes"/>
<layer number="118" name="mVias" color="7" fill="1" visible="yes" active="yes"/>
<layer number="119" name="mUnrouted" color="7" fill="1" visible="yes" active="yes"/>
<layer number="120" name="mDimension" color="7" fill="1" visible="yes" active="yes"/>
<layer number="121" name="_tsilk" color="7" fill="1" visible="no" active="yes"/>
<layer number="122" name="_bsilk" color="7" fill="1" visible="no" active="yes"/>
<layer number="123" name="tTestmark" color="7" fill="1" visible="no" active="yes"/>
<layer number="124" name="bTestmark" color="7" fill="1" visible="no" active="yes"/>
<layer number="125" name="_tNames" color="7" fill="1" visible="no" active="yes"/>
<layer number="126" name="_bNames" color="7" fill="1" visible="yes" active="yes"/>
<layer number="127" name="_tValues" color="7" fill="1" visible="yes" active="yes"/>
<layer number="128" name="_bValues" color="7" fill="1" visible="yes" active="yes"/>
<layer number="129" name="mtStop" color="7" fill="1" visible="yes" active="yes"/>
<layer number="130" name="mbStop" color="7" fill="1" visible="yes" active="yes"/>
<layer number="131" name="tAdjust" color="7" fill="1" visible="no" active="yes"/>
<layer number="132" name="bAdjust" color="7" fill="1" visible="no" active="yes"/>
<layer number="133" name="mtFinish" color="7" fill="1" visible="yes" active="yes"/>
<layer number="134" name="mbFinish" color="7" fill="1" visible="yes" active="yes"/>
<layer number="135" name="mtGlue" color="7" fill="1" visible="yes" active="yes"/>
<layer number="136" name="mbGlue" color="7" fill="1" visible="yes" active="yes"/>
<layer number="137" name="mtTest" color="7" fill="1" visible="yes" active="yes"/>
<layer number="138" name="mbTest" color="7" fill="1" visible="yes" active="yes"/>
<layer number="139" name="mtKeepout" color="7" fill="1" visible="yes" active="yes"/>
<layer number="140" name="mbKeepout" color="7" fill="1" visible="yes" active="yes"/>
<layer number="141" name="mtRestrict" color="7" fill="1" visible="yes" active="yes"/>
<layer number="142" name="mbRestrict" color="7" fill="1" visible="yes" active="yes"/>
<layer number="143" name="mvRestrict" color="7" fill="1" visible="yes" active="yes"/>
<layer number="144" name="Drill_legend" color="7" fill="1" visible="no" active="yes"/>
<layer number="145" name="mHoles" color="7" fill="1" visible="yes" active="yes"/>
<layer number="146" name="mMilling" color="7" fill="1" visible="yes" active="yes"/>
<layer number="147" name="mMeasures" color="7" fill="1" visible="yes" active="yes"/>
<layer number="148" name="mDocument" color="7" fill="1" visible="yes" active="yes"/>
<layer number="149" name="mReference" color="7" fill="1" visible="yes" active="yes"/>
<layer number="150" name="Notes" color="7" fill="1" visible="no" active="yes"/>
<layer number="151" name="HeatSink" color="14" fill="1" visible="no" active="no"/>
<layer number="152" name="_bDocu" color="7" fill="1" visible="yes" active="yes"/>
<layer number="153" name="FabDoc1" color="6" fill="1" visible="no" active="no"/>
<layer number="154" name="FabDoc2" color="2" fill="1" visible="no" active="no"/>
<layer number="155" name="FabDoc3" color="7" fill="15" visible="no" active="no"/>
<layer number="191" name="mNets" color="7" fill="1" visible="yes" active="yes"/>
<layer number="192" name="mBusses" color="7" fill="1" visible="yes" active="yes"/>
<layer number="193" name="mPins" color="7" fill="1" visible="yes" active="yes"/>
<layer number="194" name="mSymbols" color="7" fill="1" visible="yes" active="yes"/>
<layer number="195" name="mNames" color="7" fill="1" visible="yes" active="yes"/>
<layer number="196" name="mValues" color="7" fill="1" visible="yes" active="yes"/>
<layer number="199" name="Contour" color="7" fill="1" visible="yes" active="yes"/>
<layer number="200" name="200bmp" color="1" fill="10" visible="no" active="no"/>
<layer number="201" name="201bmp" color="2" fill="1" visible="no" active="no"/>
<layer number="202" name="202bmp" color="3" fill="1" visible="no" active="no"/>
<layer number="203" name="203bmp" color="4" fill="10" visible="no" active="no"/>
<layer number="204" name="204bmp" color="5" fill="10" visible="no" active="no"/>
<layer number="205" name="205bmp" color="6" fill="10" visible="no" active="no"/>
<layer number="206" name="206bmp" color="7" fill="10" visible="no" active="no"/>
<layer number="207" name="207bmp" color="15" fill="10" visible="no" active="no"/>
<layer number="208" name="208bmp" color="9" fill="10" visible="no" active="yes"/>
<layer number="209" name="209bmp" color="7" fill="1" visible="no" active="yes"/>
<layer number="210" name="210bmp" color="7" fill="1" visible="no" active="yes"/>
<layer number="211" name="211bmp" color="7" fill="1" visible="no" active="yes"/>
<layer number="212" name="212bmp" color="7" fill="1" visible="no" active="yes"/>
<layer number="213" name="213bmp" color="7" fill="1" visible="no" active="yes"/>
<layer number="214" name="214bmp" color="7" fill="1" visible="no" active="yes"/>
<layer number="215" name="215bmp" color="7" fill="1" visible="no" active="yes"/>
<layer number="216" name="216bmp" color="7" fill="1" visible="no" active="yes"/>
<layer number="217" name="217bmp" color="18" fill="1" visible="no" active="no"/>
<layer number="218" name="218bmp" color="19" fill="1" visible="no" active="no"/>
<layer number="219" name="219bmp" color="20" fill="1" visible="no" active="no"/>
<layer number="220" name="220bmp" color="21" fill="1" visible="no" active="no"/>
<layer number="221" name="221bmp" color="22" fill="1" visible="no" active="no"/>
<layer number="222" name="222bmp" color="23" fill="1" visible="no" active="no"/>
<layer number="223" name="223bmp" color="24" fill="1" visible="no" active="no"/>
<layer number="224" name="224bmp" color="25" fill="1" visible="no" active="no"/>
<layer number="248" name="Housing" color="7" fill="1" visible="yes" active="yes"/>
<layer number="249" name="Edge" color="7" fill="1" visible="yes" active="yes"/>
<layer number="250" name="Descript" color="3" fill="1" visible="no" active="no"/>
<layer number="251" name="SMDround" color="12" fill="11" visible="no" active="no"/>
<layer number="254" name="OrgLBR" color="13" fill="1" visible="no" active="no"/>
<layer number="255" name="PART_" color="7" fill="1" visible="yes" active="yes"/>
</layers>
<board>
<plain>
<circle x="23.75" y="23.75" radius="24" width="0.254" layer="20"/>
</plain>
<libraries>
<library name="SparkFun-Passives">
<description>&lt;h3&gt;SparkFun Electronics' preferred foot prints&lt;/h3&gt;
In this library you'll find resistors, capacitors, inductors, test points, jumper pads, etc.&lt;br&gt;&lt;br&gt;
We've spent an enormous amount of time creating and checking these footprints and parts, but it is the end user's responsibility to ensure correctness and suitablity for a given componet or application. If you enjoy using this library, please buy one of our products at www.sparkfun.com.
&lt;br&gt;&lt;br&gt;
&lt;b&gt;Licensing:&lt;/b&gt; CC v3.0 Share-Alike You are welcome to use this library for commercial purposes. For attribution, we ask that when you begin to sell your device using our footprint, you email us with a link to the product being sold. We want bragging rights that we helped (in a very small part) to create your 8th world wonder. We would like the opportunity to feature your device on our homepage.</description>
<packages>
<package name="0603-CAP">
<wire x1="-1.473" y1="0.983" x2="1.473" y2="0.983" width="0.0508" layer="39"/>
<wire x1="1.473" y1="0.983" x2="1.473" y2="-0.983" width="0.0508" layer="39"/>
<wire x1="1.473" y1="-0.983" x2="-1.473" y2="-0.983" width="0.0508" layer="39"/>
<wire x1="-1.473" y1="-0.983" x2="-1.473" y2="0.983" width="0.0508" layer="39"/>
<wire x1="-0.356" y1="0.432" x2="0.356" y2="0.432" width="0.1016" layer="51"/>
<wire x1="-0.356" y1="-0.419" x2="0.356" y2="-0.419" width="0.1016" layer="51"/>
<wire x1="0" y1="0.0305" x2="0" y2="-0.0305" width="0.5588" layer="21"/>
<smd name="1" x="-0.85" y="0" dx="1.1" dy="1" layer="1"/>
<smd name="2" x="0.85" y="0" dx="1.1" dy="1" layer="1"/>
<text x="-0.889" y="0.762" size="0.4064" layer="25" font="vector">&gt;NAME</text>
<text x="-1.016" y="-1.143" size="0.4064" layer="27" font="vector">&gt;VALUE</text>
<rectangle x1="-0.8382" y1="-0.4699" x2="-0.3381" y2="0.4801" layer="51"/>
<rectangle x1="0.3302" y1="-0.4699" x2="0.8303" y2="0.4801" layer="51"/>
<rectangle x1="-0.1999" y1="-0.3" x2="0.1999" y2="0.3" layer="35"/>
</package>
<package name="0603-RES">
<wire x1="-1.473" y1="0.983" x2="1.473" y2="0.983" width="0.0508" layer="39"/>
<wire x1="1.473" y1="0.983" x2="1.473" y2="-0.983" width="0.0508" layer="39"/>
<wire x1="1.473" y1="-0.983" x2="-1.473" y2="-0.983" width="0.0508" layer="39"/>
<wire x1="-1.473" y1="-0.983" x2="-1.473" y2="0.983" width="0.0508" layer="39"/>
<wire x1="-0.356" y1="0.432" x2="0.356" y2="0.432" width="0.1016" layer="51"/>
<wire x1="-0.356" y1="-0.419" x2="0.356" y2="-0.419" width="0.1016" layer="51"/>
<smd name="1" x="-0.85" y="0" dx="1.1" dy="1" layer="1"/>
<smd name="2" x="0.85" y="0" dx="1.1" dy="1" layer="1"/>
<text x="-0.889" y="0.762" size="0.4064" layer="25" font="vector">&gt;NAME</text>
<text x="-1.016" y="-1.143" size="0.4064" layer="27" font="vector">&gt;VALUE</text>
<rectangle x1="-0.8382" y1="-0.4699" x2="-0.3381" y2="0.4801" layer="51"/>
<rectangle x1="0.3302" y1="-0.4699" x2="0.8303" y2="0.4801" layer="51"/>
<rectangle x1="-0.1999" y1="-0.3" x2="0.1999" y2="0.3" layer="35"/>
<rectangle x1="-0.2286" y1="-0.381" x2="0.2286" y2="0.381" layer="21"/>
</package>
</packages>
</library>
<library name="SparkFun-Electromechanical">
<description>&lt;h3&gt;SparkFun Electronics' preferred foot prints&lt;/h3&gt;
In this library you'll find anything that moves- switches, relays, buttons, potentiometers. Also, anything that goes on a board but isn't electrical in nature- screws, standoffs, etc.&lt;br&gt;&lt;br&gt;
We've spent an enormous amount of time creating and checking these footprints and parts, but it is the end user's responsibility to ensure correctness and suitablity for a given componet or application. If you enjoy using this library, please buy one of our products at www.sparkfun.com.
&lt;br&gt;&lt;br&gt;
&lt;b&gt;Licensing:&lt;/b&gt; CC v3.0 Share-Alike You are welcome to use this library for commercial purposes. For attribution, we ask that when you begin to sell your device using our footprint, you email us with a link to the product being sold. We want bragging rights that we helped (in a very small part) to create your 8th world wonder. We would like the opportunity to feature your device on our homepage.</description>
<packages>
<package name="BATTCON_245MM">
<wire x1="-6.24" y1="-12.44" x2="6.24" y2="-12.44" width="0.2032" layer="21"/>
<wire x1="-6.24" y1="-12.44" x2="-13.04" y2="-8.24" width="0.2032" layer="21"/>
<wire x1="6.24" y1="-12.44" x2="13.04" y2="-8.24" width="0.2032" layer="21"/>
<wire x1="-7.84" y1="12.38" x2="7.94" y2="12.48" width="0.2032" layer="21" curve="94.032201"/>
<wire x1="13.04" y1="-8.24" x2="13.04" y2="-3" width="0.2032" layer="21"/>
<wire x1="-13.04" y1="-8.24" x2="-13.04" y2="-3" width="0.2032" layer="21"/>
<wire x1="-13.04" y1="10.38" x2="-7.84" y2="12.38" width="0.2032" layer="21" curve="-139.635474"/>
<wire x1="13.04" y1="10.38" x2="7.84" y2="12.38" width="0.2032" layer="21" curve="136.99875"/>
<wire x1="-13.04" y1="10.38" x2="-13.04" y2="3" width="0.2032" layer="21"/>
<wire x1="13.04" y1="10.38" x2="13.04" y2="3" width="0.2032" layer="21"/>
<circle x="0" y="0" radius="12.25" width="0.2032" layer="51"/>
<smd name="2" x="0" y="0" dx="4.064" dy="4.064" layer="1"/>
<smd name="1" x="-15.367" y="0" dx="5.08" dy="5.08" layer="1"/>
<smd name="3" x="15.367" y="0" dx="5.08" dy="5.08" layer="1"/>
<text x="-9.525" y="0.635" size="0.4064" layer="25">&gt;NAME</text>
<text x="-9.525" y="-0.635" size="0.4064" layer="27">&gt;VALUE</text>
</package>
<package name="SWITCH-SPST-SMD-A">
<wire x1="-3.35" y1="1.3" x2="-3.35" y2="-1.3" width="0.127" layer="51"/>
<wire x1="-3.35" y1="-1.3" x2="3.35" y2="-1.3" width="0.127" layer="51"/>
<wire x1="3.35" y1="-1.3" x2="3.35" y2="1.3" width="0.127" layer="51"/>
<wire x1="3.35" y1="1.3" x2="-0.1" y2="1.3" width="0.127" layer="51"/>
<wire x1="-0.1" y1="1.3" x2="-1.4" y2="1.3" width="0.127" layer="51"/>
<wire x1="-1.4" y1="1.3" x2="-3.35" y2="1.3" width="0.127" layer="51"/>
<wire x1="-0.1" y1="1.3" x2="-0.1" y2="2.8" width="0.127" layer="51"/>
<wire x1="-0.1" y1="2.8" x2="-1.4" y2="2.8" width="0.127" layer="51"/>
<wire x1="-1.4" y1="2.8" x2="-1.4" y2="1.3" width="0.127" layer="51"/>
<wire x1="-3.35" y1="0.3" x2="-3.35" y2="-0.3" width="0.2032" layer="21"/>
<wire x1="3.35" y1="0.3" x2="3.35" y2="-0.3" width="0.2032" layer="21"/>
<wire x1="2.7" y1="1.3" x2="-2.7" y2="1.3" width="0.2032" layer="21"/>
<wire x1="1.5" y1="-1.3" x2="0" y2="-1.3" width="0.2032" layer="21"/>
<smd name="1" x="-2.25" y="-1.75" dx="0.7" dy="1.5" layer="1" rot="R180"/>
<smd name="2" x="-0.75" y="-1.75" dx="0.7" dy="1.5" layer="1" rot="R180"/>
<smd name="3" x="2.25" y="-1.75" dx="0.7" dy="1.5" layer="1" rot="R180"/>
<smd name="GND1" x="-3.65" y="1" dx="1" dy="0.6" layer="1"/>
<smd name="GND2" x="-3.65" y="-1.1" dx="1" dy="0.8" layer="1"/>
<smd name="GND3" x="3.65" y="1" dx="1" dy="0.6" layer="1"/>
<smd name="GND4" x="3.65" y="-1.1" dx="1" dy="0.8" layer="1"/>
<text x="-1.27" y="0.635" size="0.6096" layer="25">&gt;Name</text>
<text x="-1.27" y="-1.27" size="0.6096" layer="27">&gt;Value</text>
<hole x="-1.5" y="0" drill="0.9"/>
<hole x="1.5" y="0" drill="0.9"/>
</package>
<package name="TACTILE_SWITCH_SMD">
<wire x1="-1.54" y1="-2.54" x2="-2.54" y2="-1.54" width="0.2032" layer="51"/>
<wire x1="-2.54" y1="-1.24" x2="-2.54" y2="1.27" width="0.2032" layer="21"/>
<wire x1="-2.54" y1="1.54" x2="-1.54" y2="2.54" width="0.2032" layer="51"/>
<wire x1="-1.54" y1="2.54" x2="1.54" y2="2.54" width="0.2032" layer="21"/>
<wire x1="1.54" y1="2.54" x2="2.54" y2="1.54" width="0.2032" layer="51"/>
<wire x1="2.54" y1="1.24" x2="2.54" y2="-1.24" width="0.2032" layer="21"/>
<wire x1="2.54" y1="-1.54" x2="1.54" y2="-2.54" width="0.2032" layer="51"/>
<wire x1="1.54" y1="-2.54" x2="-1.54" y2="-2.54" width="0.2032" layer="21"/>
<wire x1="1.905" y1="1.27" x2="1.905" y2="0.445" width="0.127" layer="51"/>
<wire x1="1.905" y1="0.445" x2="2.16" y2="-0.01" width="0.127" layer="51"/>
<wire x1="1.905" y1="-0.23" x2="1.905" y2="-1.115" width="0.127" layer="51"/>
<circle x="0" y="0" radius="1.27" width="0.2032" layer="21"/>
<smd name="1" x="-2.54" y="1.905" dx="0.762" dy="1.524" layer="1" rot="R90"/>
<smd name="2" x="2.54" y="1.905" dx="0.762" dy="1.524" layer="1" rot="R90"/>
<smd name="3" x="-2.54" y="-1.905" dx="0.762" dy="1.524" layer="1" rot="R90"/>
<smd name="4" x="2.54" y="-1.905" dx="0.762" dy="1.524" layer="1" rot="R90"/>
<text x="-0.889" y="1.778" size="0.4064" layer="25">&gt;NAME</text>
<text x="-0.889" y="-2.032" size="0.4064" layer="27">&gt;Value</text>
</package>
</packages>
</library>
<library name="SparkFun-Connectors">
<description>&lt;h3&gt;SparkFun Electronics' preferred foot prints&lt;/h3&gt;
In this library you'll find connectors and sockets- basically anything that can be plugged into or onto.&lt;br&gt;&lt;br&gt;
We've spent an enormous amount of time creating and checking these footprints and parts, but it is the end user's responsibility to ensure correctness and suitablity for a given componet or application. If you enjoy using this library, please buy one of our products at www.sparkfun.com.
&lt;br&gt;&lt;br&gt;
&lt;b&gt;Licensing:&lt;/b&gt; CC v3.0 Share-Alike You are welcome to use this library for commercial purposes. For attribution, we ask that when you begin to sell your device using our footprint, you email us with a link to the product being sold. We want bragging rights that we helped (in a very small part) to create your 8th world wonder. We would like the opportunity to feature your device on our homepage.</description>
<packages>
<package name="USB-MICROB">
<description>Micro USB Package</description>
<wire x1="-3.4" y1="-2.15" x2="-3" y2="-2.15" width="0.127" layer="51"/>
<wire x1="3" y1="-2.15" x2="3.4" y2="-2.15" width="0.127" layer="51"/>
<wire x1="-3.4" y1="-2.15" x2="-3.4" y2="-1.45" width="0.127" layer="51"/>
<wire x1="-3.4" y1="-1.45" x2="-3.4" y2="2.85" width="0.127" layer="51"/>
<wire x1="3.4" y1="2.85" x2="2.2" y2="2.85" width="0.127" layer="51"/>
<wire x1="3.4" y1="2.85" x2="3.4" y2="-1.45" width="0.127" layer="51"/>
<wire x1="3.4" y1="-1.45" x2="3.4" y2="-2.15" width="0.127" layer="51"/>
<wire x1="-3.4" y1="-1.45" x2="3.4" y2="-1.45" width="0.127" layer="51"/>
<wire x1="-3.4" y1="1.25" x2="-3.4" y2="2.85" width="0.2032" layer="21"/>
<wire x1="-3.4" y1="2.85" x2="-2.2" y2="2.85" width="0.2032" layer="21"/>
<wire x1="3.4" y1="2.85" x2="2.2" y2="2.85" width="0.2032" layer="21"/>
<wire x1="3.4" y1="1.25" x2="3.4" y2="2.85" width="0.2032" layer="21"/>
<wire x1="-3.4" y1="-1.45" x2="3.4" y2="-1.45" width="0.2032" layer="21"/>
<wire x1="-2.2" y1="1.45" x2="2.2" y2="1.45" width="0.127" layer="51"/>
<wire x1="2.2" y1="1.45" x2="2.2" y2="2.85" width="0.127" layer="51"/>
<wire x1="-2.2" y1="1.45" x2="-2.2" y2="2.85" width="0.127" layer="51"/>
<wire x1="-3.4" y1="2.85" x2="-2.2" y2="2.85" width="0.127" layer="51"/>
<wire x1="-2.2" y1="2.85" x2="-2.2" y2="1.45" width="0.2032" layer="21"/>
<wire x1="-2.2" y1="1.45" x2="2.2" y2="1.45" width="0.2032" layer="21"/>
<wire x1="2.2" y1="1.45" x2="2.2" y2="2.85" width="0.2032" layer="21"/>
<wire x1="-3.4" y1="-2.15" x2="-4" y2="-2.75" width="0.2032" layer="51"/>
<wire x1="3.4" y1="-2.15" x2="4" y2="-2.75" width="0.2032" layer="51"/>
<wire x1="-3" y1="-2.15" x2="-3" y2="-2.55" width="0.127" layer="51"/>
<wire x1="-2.8" y1="-2.8" x2="2.75" y2="-2.8" width="0.127" layer="51"/>
<wire x1="3" y1="-2.6" x2="3" y2="-2.15" width="0.127" layer="51"/>
<wire x1="-3" y1="-2.55" x2="-2.8" y2="-2.8" width="0.127" layer="51" curve="84.547378"/>
<wire x1="2.75" y1="-2.8" x2="3" y2="-2.6" width="0.127" layer="51" curve="84.547378"/>
<smd name="VBUS" x="-1.3" y="2.65" dx="1.4" dy="0.35" layer="1" rot="R90"/>
<smd name="GND" x="1.3" y="2.65" dx="1.4" dy="0.35" layer="1" rot="R90"/>
<smd name="D-" x="-0.65" y="2.65" dx="1.4" dy="0.35" layer="1" rot="R90"/>
<smd name="D+" x="0" y="2.65" dx="1.4" dy="0.35" layer="1" rot="R90"/>
<smd name="ID" x="0.65" y="2.65" dx="1.4" dy="0.35" layer="1" rot="R90"/>
<smd name="MT1" x="-4" y="0" dx="1.8" dy="1.9" layer="1"/>
<smd name="MT2" x="4" y="0" dx="1.8" dy="1.9" layer="1"/>
<text x="-1.6" y="-0.35" size="0.762" layer="25">&gt;NAME</text>
<text x="-1.905" y="-3.175" size="0.762" layer="27">&gt;VALUE</text>
<smd name="P$1" x="-1.27" y="0" dx="1.9" dy="1.9" layer="1"/>
<smd name="P$2" x="1.27" y="0" dx="1.9" dy="1.9" layer="1"/>
</package>
</packages>
</library>
<library name="SparkFun-DigitalIC">
<description>&lt;h3&gt;SparkFun Electronics' preferred foot prints&lt;/h3&gt;
In this library you'll find all manner of digital ICs- microcontrollers, memory chips, logic chips, FPGAs, etc.&lt;br&gt;&lt;br&gt;
We've spent an enormous amount of time creating and checking these footprints and parts, but it is the end user's responsibility to ensure correctness and suitablity for a given componet or application. If you enjoy using this library, please buy one of our products at www.sparkfun.com.
&lt;br&gt;&lt;br&gt;
&lt;b&gt;Licensing:&lt;/b&gt; CC v3.0 Share-Alike You are welcome to use this library for commercial purposes. For attribution, we ask that when you begin to sell your device using our footprint, you email us with a link to the product being sold. We want bragging rights that we helped (in a very small part) to create your 8th world wonder. We would like the opportunity to feature your device on our homepage.</description>
<packages>
<package name="SO08-EIAJ">
<description>Fits EIAJ packages (wide version of the SOIC-8).</description>
<wire x1="-2.362" y1="-2.565" x2="2.362" y2="-2.565" width="0.1524" layer="51"/>
<wire x1="2.362" y1="-2.565" x2="2.362" y2="2.5396" width="0.1524" layer="21"/>
<wire x1="2.362" y1="2.5396" x2="-2.362" y2="2.5396" width="0.1524" layer="51"/>
<wire x1="-2.362" y1="2.5396" x2="-2.362" y2="-2.565" width="0.1524" layer="21"/>
<circle x="-1.8034" y="-1.7526" radius="0.1436" width="0.2032" layer="21"/>
<smd name="1" x="-1.905" y="-3.3782" dx="0.6096" dy="2.2098" layer="1"/>
<smd name="2" x="-0.635" y="-3.3782" dx="0.6096" dy="2.2098" layer="1"/>
<smd name="3" x="0.635" y="-3.3782" dx="0.6096" dy="2.2098" layer="1"/>
<smd name="4" x="1.905" y="-3.3782" dx="0.6096" dy="2.2098" layer="1"/>
<smd name="5" x="1.905" y="3.3528" dx="0.6096" dy="2.2098" layer="1"/>
<smd name="6" x="0.635" y="3.3528" dx="0.6096" dy="2.2098" layer="1"/>
<smd name="7" x="-0.635" y="3.3528" dx="0.6096" dy="2.2098" layer="1"/>
<smd name="8" x="-1.905" y="3.3528" dx="0.6096" dy="2.2098" layer="1"/>
<text x="-1.27" y="-1.397" size="0.4064" layer="27">&gt;VALUE</text>
<text x="-1.27" y="-0.762" size="0.4064" layer="25">&gt;NAME</text>
<rectangle x1="-2.0828" y1="-3.6322" x2="-1.7272" y2="-2.6162" layer="51"/>
<rectangle x1="-0.8128" y1="-3.6322" x2="-0.4572" y2="-2.6162" layer="51"/>
<rectangle x1="0.4572" y1="-3.6322" x2="0.8128" y2="-2.6162" layer="51"/>
<rectangle x1="1.7272" y1="-3.6322" x2="2.0828" y2="-2.6162" layer="51"/>
<rectangle x1="-2.0828" y1="2.5908" x2="-1.7272" y2="3.6068" layer="51"/>
<rectangle x1="-0.8128" y1="2.5908" x2="-0.4572" y2="3.6068" layer="51"/>
<rectangle x1="0.4572" y1="2.5908" x2="0.8128" y2="3.6068" layer="51"/>
<rectangle x1="1.7272" y1="2.5908" x2="2.0828" y2="3.6068" layer="51"/>
</package>
</packages>
</library>
<library name="SparkFun-Sensors">
<description>&lt;h3&gt;SparkFun Electronics' preferred foot prints&lt;/h3&gt;
In this library you'll find sensors- accelerometers, gyros, compasses, magnetometers, light sensors, imagers, temp sensors, etc.&lt;br&gt;&lt;br&gt;
We've spent an enormous amount of time creating and checking these footprints and parts, but it is the end user's responsibility to ensure correctness and suitablity for a given componet or application. If you enjoy using this library, please buy one of our products at www.sparkfun.com.
&lt;br&gt;&lt;br&gt;
&lt;b&gt;Licensing:&lt;/b&gt; CC v3.0 Share-Alike You are welcome to use this library for commercial purposes. For attribution, we ask that when you begin to sell your device using our footprint, you email us with a link to the product being sold. We want bragging rights that we helped (in a very small part) to create your 8th world wonder. We would like the opportunity to feature your device on our homepage.</description>
<packages>
<package name="TEMT6000-SEN">
<wire x1="2" y1="0.76" x2="2" y2="0.97" width="0.127" layer="21"/>
<wire x1="2" y1="0.97" x2="-0.96" y2="0.97" width="0.127" layer="21"/>
<wire x1="2" y1="-0.76" x2="2" y2="-0.99" width="0.127" layer="21"/>
<wire x1="2" y1="-0.99" x2="-0.99" y2="-0.99" width="0.127" layer="21"/>
<wire x1="-1.99" y1="-0.07" x2="-1.99" y2="0.08" width="0.127" layer="21"/>
<smd name="EMITTER" x="-1.87" y="0.65" dx="1.1" dy="0.8" layer="1"/>
<smd name="BASE" x="-1.87" y="-0.65" dx="1.1" dy="0.8" layer="1"/>
<smd name="COLLECTOR" x="1.86" y="0.01" dx="1.1" dy="1" layer="1"/>
<text x="-1.016" y="0.381" size="0.4064" layer="25">&gt;Name</text>
<text x="-1.016" y="-0.762" size="0.4064" layer="27">&gt;Value</text>
</package>
</packages>
</library>
<library name="adafruit">
<packages>
<package name="RGBLED5050">
<wire x1="-2.5" y1="2.5" x2="2.5" y2="2.5" width="0.127" layer="21"/>
<wire x1="2.5" y1="2.5" x2="2.5" y2="-1.5" width="0.127" layer="21"/>
<wire x1="2.5" y1="-1.5" x2="2.5" y2="-2.5" width="0.127" layer="21"/>
<wire x1="2.5" y1="-2.5" x2="1.5" y2="-2.5" width="0.127" layer="21"/>
<wire x1="1.5" y1="-2.5" x2="-2.5" y2="-2.5" width="0.127" layer="21"/>
<wire x1="-2.5" y1="-2.5" x2="-2.5" y2="2.5" width="0.127" layer="21"/>
<wire x1="1.5" y1="-2.5" x2="2.5" y2="-1.5" width="0.127" layer="21"/>
<circle x="2.934" y="-2.688" radius="0.1414" width="0.127" layer="21"/>
<circle x="0" y="0" radius="2.1" width="0.127" layer="21"/>
<smd name="1" x="-2" y="1.7" dx="2" dy="1.1" layer="1"/>
<smd name="2" x="-2" y="0" dx="2" dy="1.1" layer="1"/>
<smd name="3" x="-2" y="-1.7" dx="2" dy="1.1" layer="1"/>
<smd name="4" x="2" y="-1.7" dx="2" dy="1.1" layer="1"/>
<smd name="5" x="2" y="0" dx="2" dy="1.1" layer="1"/>
<smd name="6" x="2" y="1.7" dx="2" dy="1.1" layer="1"/>
<text x="-1.7" y="2.9" size="1.27" layer="25" font="vector">&gt;NAME</text>
<text x="-2" y="-4.1" size="1.27" layer="27" font="vector">&gt;VALUE</text>
</package>
<package name="SOT23-5L">
<description>&lt;b&gt;Small Outline Transistor&lt;/b&gt;&lt;p&gt;
package type OT</description>
<wire x1="1.422" y1="0.81" x2="1.422" y2="-0.81" width="0.1524" layer="21"/>
<wire x1="1.422" y1="-0.81" x2="-1.422" y2="-0.81" width="0.1524" layer="51"/>
<wire x1="-1.422" y1="-0.81" x2="-1.422" y2="0.81" width="0.1524" layer="21"/>
<wire x1="-1.422" y1="0.81" x2="1.422" y2="0.81" width="0.1524" layer="51"/>
<wire x1="-0.522" y1="0.81" x2="0.522" y2="0.81" width="0.1524" layer="21"/>
<wire x1="-0.428" y1="-0.81" x2="-0.522" y2="-0.81" width="0.1524" layer="21"/>
<wire x1="0.522" y1="-0.81" x2="0.428" y2="-0.81" width="0.1524" layer="21"/>
<wire x1="-1.328" y1="-0.81" x2="-1.422" y2="-0.81" width="0.1524" layer="21"/>
<wire x1="1.422" y1="-0.81" x2="1.328" y2="-0.81" width="0.1524" layer="21"/>
<wire x1="1.328" y1="0.81" x2="1.422" y2="0.81" width="0.1524" layer="21"/>
<wire x1="-1.422" y1="0.81" x2="-1.328" y2="0.81" width="0.1524" layer="21"/>
<smd name="1" x="-0.95" y="-1.3" dx="0.55" dy="1.2" layer="1"/>
<smd name="2" x="0" y="-1.3" dx="0.55" dy="1.2" layer="1"/>
<smd name="3" x="0.95" y="-1.3" dx="0.55" dy="1.2" layer="1"/>
<smd name="4" x="0.95" y="1.3" dx="0.55" dy="1.2" layer="1"/>
<smd name="5" x="-0.95" y="1.3" dx="0.55" dy="1.2" layer="1"/>
<text x="-1.905" y="1.905" size="1.27" layer="25">&gt;NAME</text>
<text x="-1.905" y="-3.429" size="1.27" layer="27">&gt;VALUE</text>
<rectangle x1="-1.2" y1="-1.5" x2="-0.7" y2="-0.85" layer="51"/>
<rectangle x1="-0.25" y1="-1.5" x2="0.25" y2="-0.85" layer="51"/>
<rectangle x1="0.7" y1="-1.5" x2="1.2" y2="-0.85" layer="51"/>
<rectangle x1="0.7" y1="0.85" x2="1.2" y2="1.5" layer="51"/>
<rectangle x1="-1.2" y1="0.85" x2="-0.7" y2="1.5" layer="51"/>
</package>
<package name="CHIP-LED0603">
<description>&lt;b&gt;Hyper CHIPLED Hyper-Bright LED&lt;/b&gt;&lt;p&gt;
LB Q993&lt;br&gt;
Source: http://www.osram.convergy.de/ ... Lb_q993.pdf</description>
<wire x1="-0.4" y1="0.45" x2="-0.4" y2="-0.45" width="0.1016" layer="51"/>
<wire x1="0.4" y1="0.45" x2="0.4" y2="-0.45" width="0.1016" layer="51"/>
<smd name="C" x="0" y="0.75" dx="0.8" dy="0.8" layer="1"/>
<smd name="A" x="0" y="-0.75" dx="0.8" dy="0.8" layer="1"/>
<text x="-0.635" y="-0.635" size="1.27" layer="25" rot="R90">&gt;NAME</text>
<text x="1.905" y="-0.635" size="1.27" layer="27" rot="R90">&gt;VALUE</text>
<rectangle x1="-0.45" y1="0.45" x2="0.45" y2="0.85" layer="51"/>
<rectangle x1="-0.45" y1="-0.85" x2="0.45" y2="-0.45" layer="51"/>
<rectangle x1="-0.45" y1="0" x2="-0.3" y2="0.3" layer="21"/>
<rectangle x1="0.3" y1="0" x2="0.45" y2="0.3" layer="21"/>
<rectangle x1="-0.15" y1="0" x2="0.15" y2="0.3" layer="21"/>
</package>
</packages>
</library>
<library name="protofusion">
<packages>
<package name="POGOPROG-CONN-W">
<description>Standard pogo pin programming header with two alignment holes. WIDE smd pads.</description>
<smd name="3" x="0" y="0" dx="1.143" dy="0.8128" layer="1"/>
<smd name="2" x="0" y="1.27" dx="1.143" dy="0.8128" layer="1"/>
<smd name="4" x="0" y="-1.27" dx="1.143" dy="0.8128" layer="1"/>
<smd name="1" x="0" y="2.54" dx="1.143" dy="0.8128" layer="1"/>
<smd name="5" x="0" y="-2.54" dx="1.143" dy="0.8128" layer="1"/>
<hole x="0" y="3.81" drill="0.5"/>
<hole x="0" y="-5.08" drill="0.5"/>
<wire x1="-0.635" y1="4.445" x2="0.635" y2="4.445" width="0.127" layer="21"/>
<wire x1="0.635" y1="4.445" x2="0.635" y2="-5.715" width="0.127" layer="21"/>
<wire x1="0.635" y1="-5.715" x2="-0.635" y2="-5.715" width="0.127" layer="21"/>
<wire x1="-0.635" y1="-5.715" x2="-0.635" y2="4.445" width="0.127" layer="21"/>
<smd name="6" x="0" y="-3.81" dx="1.143" dy="0.8128" layer="1"/>
<polygon width="0.127" layer="21">
<vertex x="-0.635" y="1.905"/>
<vertex x="0.635" y="1.905"/>
<vertex x="0.635" y="4.445"/>
<vertex x="-0.635" y="4.445"/>
</polygon>
<text x="-1.27" y="5.08" size="1.27" layer="25">&gt;NAME</text>
<text x="-1.27" y="-7.62" size="1.27" layer="27">&gt;VALUE</text>
</package>
</packages>
</library>
</libraries>
<attributes>
</attributes>
<variantdefs>
</variantdefs>
<classes>
<class number="0" name="default" width="0" drill="0">
</class>
</classes>
<designrules name="Fusion_eagle_rule_v1.1">
<description language="de">&lt;b&gt;EAGLE Design Rules&lt;/b&gt;
&lt;p&gt;
Die Standard-Design-Rules sind so gewählt, dass sie für 
die meisten Anwendungen passen. Sollte ihre Platine 
besondere Anforderungen haben, treffen Sie die erforderlichen
Einstellungen hier und speichern die Design Rules unter 
einem neuen Namen ab.</description>
<description language="en">&lt;b&gt;EAGLE Design Rules&lt;/b&gt;
&lt;p&gt;
The default Design Rules have been set to cover
a wide range of applications. Your particular design
may have different requirements, so please make the
necessary adjustments and save your customized
design rules under a new name.</description>
<description language="zh">&lt;b&gt;Seeed Studio EAGLE Design Rules&lt;/b&gt;
</description>
<param name="layerSetup" value="(1*16)"/>
<param name="mtCopper" value="0.035mm 0.035mm 0.035mm 0.035mm 0.035mm 0.035mm 0.035mm 0.035mm 0.035mm 0.035mm 0.035mm 0.035mm 0.035mm 0.035mm 0.035mm 0.035mm"/>
<param name="mtIsolate" value="1.5mm 0.15mm 0.2mm 0.15mm 0.2mm 0.15mm 0.2mm 0.15mm 0.2mm 0.15mm 0.2mm 0.15mm 0.2mm 0.15mm 0.2mm"/>
<param name="mdWireWire" value="6mil"/>
<param name="mdWirePad" value="6mil"/>
<param name="mdWireVia" value="6mil"/>
<param name="mdPadPad" value="6mil"/>
<param name="mdPadVia" value="6mil"/>
<param name="mdViaVia" value="6mil"/>
<param name="mdSmdPad" value="0mil"/>
<param name="mdSmdVia" value="0mil"/>
<param name="mdSmdSmd" value="0mil"/>
<param name="mdViaViaSameLayer" value="8mil"/>
<param name="mnLayersViaInSmd" value="2"/>
<param name="mdCopperDimension" value="10mil"/>
<param name="mdDrill" value="10mil"/>
<param name="mdSmdStop" value="0mil"/>
<param name="msWidth" value="6mil"/>
<param name="msDrill" value="12mil"/>
<param name="msMicroVia" value="12mil"/>
<param name="msBlindViaRatio" value="0.5"/>
<param name="rvPadTop" value="0.25"/>
<param name="rvPadInner" value="0.25"/>
<param name="rvPadBottom" value="0.25"/>
<param name="rvViaOuter" value="0.25"/>
<param name="rvViaInner" value="0.25"/>
<param name="rvMicroViaOuter" value="0.25"/>
<param name="rvMicroViaInner" value="0.25"/>
<param name="rlMinPadTop" value="10mil"/>
<param name="rlMaxPadTop" value="20mil"/>
<param name="rlMinPadInner" value="10mil"/>
<param name="rlMaxPadInner" value="20mil"/>
<param name="rlMinPadBottom" value="10mil"/>
<param name="rlMaxPadBottom" value="20mil"/>
<param name="rlMinViaOuter" value="6mil"/>
<param name="rlMaxViaOuter" value="20mil"/>
<param name="rlMinViaInner" value="6mil"/>
<param name="rlMaxViaInner" value="20mil"/>
<param name="rlMinMicroViaOuter" value="4mil"/>
<param name="rlMaxMicroViaOuter" value="20mil"/>
<param name="rlMinMicroViaInner" value="4mil"/>
<param name="rlMaxMicroViaInner" value="20mil"/>
<param name="psTop" value="-1"/>
<param name="psBottom" value="-1"/>
<param name="psFirst" value="0"/>
<param name="psElongationLong" value="100"/>
<param name="psElongationOffset" value="100"/>
<param name="mvStopFrame" value="1"/>
<param name="mvCreamFrame" value="0"/>
<param name="mlMinStopFrame" value="2mil"/>
<param name="mlMaxStopFrame" value="2mil"/>
<param name="mlMinCreamFrame" value="0mil"/>
<param name="mlMaxCreamFrame" value="0mil"/>
<param name="mlViaStopLimit" value="100mil"/>
<param name="srRoundness" value="0"/>
<param name="srMinRoundness" value="0mil"/>
<param name="srMaxRoundness" value="0mil"/>
<param name="slThermalIsolate" value="10mil"/>
<param name="slThermalsForVias" value="0"/>
<param name="dpMaxLengthDifference" value="10mm"/>
<param name="dpGapFactor" value="2.5"/>
<param name="checkGrid" value="0"/>
<param name="checkAngle" value="0"/>
<param name="checkFont" value="1"/>
<param name="checkRestrict" value="0"/>
<param name="useDiameter" value="13"/>
<param name="maxErrors" value="50"/>
</designrules>
<autorouter>
<pass name="Default">
<param name="RoutingGrid" value="12mil"/>
<param name="AutoGrid" value="1"/>
<param name="Efforts" value="0"/>
<param name="TopRouterVariant" value="1"/>
<param name="tpViaShape" value="round"/>
<param name="PrefDir.1" value="|"/>
<param name="PrefDir.2" value="0"/>
<param name="PrefDir.3" value="0"/>
<param name="PrefDir.4" value="0"/>
<param name="PrefDir.5" value="0"/>
<param name="PrefDir.6" value="0"/>
<param name="PrefDir.7" value="0"/>
<param name="PrefDir.8" value="0"/>
<param name="PrefDir.9" value="0"/>
<param name="PrefDir.10" value="0"/>
<param name="PrefDir.11" value="0"/>
<param name="PrefDir.12" value="0"/>
<param name="PrefDir.13" value="0"/>
<param name="PrefDir.14" value="0"/>
<param name="PrefDir.15" value="0"/>
<param name="PrefDir.16" value="-"/>
<param name="cfVia" value="8"/>
<param name="cfNonPref" value="5"/>
<param name="cfChangeDir" value="2"/>
<param name="cfOrthStep" value="2"/>
<param name="cfDiagStep" value="3"/>
<param name="cfExtdStep" value="0"/>
<param name="cfBonusStep" value="1"/>
<param name="cfMalusStep" value="1"/>
<param name="cfPadImpact" value="4"/>
<param name="cfSmdImpact" value="4"/>
<param name="cfBusImpact" value="0"/>
<param name="cfHugging" value="3"/>
<param name="cfAvoid" value="4"/>
<param name="cfPolygon" value="10"/>
<param name="cfBase.1" value="0"/>
<param name="cfBase.2" value="1"/>
<param name="cfBase.3" value="1"/>
<param name="cfBase.4" value="1"/>
<param name="cfBase.5" value="1"/>
<param name="cfBase.6" value="1"/>
<param name="cfBase.7" value="1"/>
<param name="cfBase.8" value="1"/>
<param name="cfBase.9" value="1"/>
<param name="cfBase.10" value="1"/>
<param name="cfBase.11" value="1"/>
<param name="cfBase.12" value="1"/>
<param name="cfBase.13" value="1"/>
<param name="cfBase.14" value="1"/>
<param name="cfBase.15" value="1"/>
<param name="cfBase.16" value="0"/>
<param name="mnVias" value="20"/>
<param name="mnSegments" value="9999"/>
<param name="mnExtdSteps" value="9999"/>
<param name="mnRipupLevel" value="10"/>
<param name="mnRipupSteps" value="100"/>
<param name="mnRipupTotal" value="100"/>
</pass>
<pass name="Follow-me" refer="Default" active="yes">
</pass>
<pass name="Busses" refer="Default" active="yes">
<param name="cfNonPref" value="4"/>
<param name="cfBusImpact" value="4"/>
<param name="cfHugging" value="0"/>
<param name="mnVias" value="0"/>
</pass>
<pass name="Route" refer="Default" active="yes">
</pass>
<pass name="Optimize1" refer="Default" active="yes">
<param name="cfVia" value="99"/>
<param name="cfExtdStep" value="10"/>
<param name="cfHugging" value="1"/>
<param name="mnExtdSteps" value="1"/>
<param name="mnRipupLevel" value="0"/>
</pass>
<pass name="Optimize2" refer="Optimize1" active="yes">
<param name="cfNonPref" value="0"/>
<param name="cfChangeDir" value="6"/>
<param name="cfExtdStep" value="0"/>
<param name="cfBonusStep" value="2"/>
<param name="cfMalusStep" value="2"/>
<param name="cfPadImpact" value="2"/>
<param name="cfSmdImpact" value="2"/>
<param name="cfHugging" value="0"/>
</pass>
<pass name="Optimize3" refer="Optimize2" active="yes">
<param name="cfChangeDir" value="8"/>
<param name="cfPadImpact" value="0"/>
<param name="cfSmdImpact" value="0"/>
</pass>
<pass name="Optimize4" refer="Optimize3" active="yes">
<param name="cfChangeDir" value="25"/>
</pass>
</autorouter>
<elements>
<element name="C1" library="SparkFun-Passives" package="0603-CAP" value="" x="37.8825" y="8.7725" rot="MR90"/>
<element name="BAT1" library="SparkFun-Electromechanical" package="BATTCON_245MM" value="" x="24" y="23.75" rot="MR90"/>
<element name="C2" library="SparkFun-Passives" package="0603-CAP" value="22uF" x="5.235" y="15.47" rot="MR0"/>
<element name="U1" library="SparkFun-DigitalIC" package="SO08-EIAJ" value="Tiny85-20-SMT" x="15.37" y="40.6225" rot="MR270">
<attribute name="PROD_ID" value="IC-09092" x="15.37" y="40.6225" size="1.778" layer="28" rot="MR270" display="off"/>
</element>
<element name="U$2" library="SparkFun-Sensors" package="TEMT6000-SEN" value="TEMT6000" x="8.6275" y="33.97" rot="MR180"/>
<element name="R1" library="SparkFun-Passives" package="0603-RES" value="" x="5.56" y="30.47" rot="MR180"/>
<element name="LED1" library="adafruit" package="RGBLED5050" value="RGBLED5050" x="24" y="23.75"/>
<element name="IC1" library="adafruit" package="SOT23-5L" value="MCP73831/OT" x="9.25" y="26.75" rot="MR180"/>
<element name="R2" library="SparkFun-Passives" package="0603-RES" value="" x="9.25" y="22" rot="MR90"/>
<element name="S1" library="SparkFun-Electromechanical" package="SWITCH-SPST-SMD-A" value="" x="32" y="5.75" rot="MR180"/>
<element name="JP1" library="SparkFun-Connectors" package="USB-MICROB" value="USB-MICROB" x="4" y="22.75" rot="MR90">
<attribute name="PROD_ID" value="CONN-09505" x="4" y="22.75" size="1.778" layer="28" rot="MR90" display="off"/>
</element>
<element name="LED2" library="adafruit" package="CHIP-LED0603" value="" x="9.25" y="17.25" rot="MR90"/>
<element name="R3" library="SparkFun-Passives" package="0603-RES" value="" x="5.25" y="17.25" rot="MR180"/>
<element name="C3" library="SparkFun-Passives" package="0603-CAP" value="22uF" x="9.5" y="30.5" rot="MR0"/>
<element name="S2" library="SparkFun-Electromechanical" package="TACTILE_SWITCH_SMD" value="SWITCH-MOMENTARY-2SMD" x="17.5" y="6.5" rot="MR180"/>
<element name="R4" library="SparkFun-Passives" package="0603-RES" value="" x="9" y="15.5" rot="MR0"/>
<element name="U$1" library="protofusion" package="POGOPROG-CONN-W" value="POGOPIN-CONNWIDE" x="9.5" y="8.75" rot="MR135"/>
</elements>
<signals>
<signal name="VCC">
<contactref element="C1" pad="1"/>
<contactref element="C2" pad="1"/>
<contactref element="U1" pad="8"/>
<contactref element="U$2" pad="COLLECTOR"/>
<contactref element="S1" pad="3"/>
<contactref element="U$1" pad="6"/>
<wire x1="10.4875" y1="33.96" x2="12.0172" y2="42.5275" width="0" layer="19" extent="16-16"/>
<wire x1="6.085" y1="15.47" x2="10.4875" y2="33.96" width="0" layer="19" extent="16-16"/>
<wire x1="6.805925" y1="11.444075" x2="6.085" y2="15.47" width="0" layer="19" extent="16-16"/>
<wire x1="34.25" y1="7.5" x2="6.805925" y2="11.444075" width="0" layer="19" extent="16-16"/>
<wire x1="37.8825" y1="7.9225" x2="34.25" y2="7.5" width="0" layer="19" extent="16-16"/>
</signal>
<signal name="GND">
<contactref element="C1" pad="2"/>
<contactref element="C2" pad="2"/>
<polygon width="0.3048" layer="16">
<vertex x="-2.27" y="48.99"/>
<vertex x="-2.27" y="-2.25"/>
<vertex x="51.59" y="-1.25"/>
<vertex x="51.59" y="49.99"/>
</polygon>
<polygon width="0.3048" layer="1">
<vertex x="-0.27" y="-1.25"/>
<vertex x="-0.27" y="49.99"/>
<vertex x="51.59" y="49.99"/>
<vertex x="51.59" y="-1.25"/>
</polygon>
<contactref element="U1" pad="4"/>
<contactref element="R1" pad="2"/>
<contactref element="R2" pad="1"/>
<contactref element="IC1" pad="2"/>
<contactref element="JP1" pad="MT1"/>
<contactref element="JP1" pad="MT2"/>
<contactref element="JP1" pad="GND"/>
<contactref element="LED1" pad="5"/>
<contactref element="LED1" pad="6"/>
<contactref element="LED1" pad="4"/>
<contactref element="C3" pad="1"/>
<contactref element="BAT1" pad="2"/>
<contactref element="R4" pad="1"/>
<contactref element="U$1" pad="5"/>
<wire x1="24" y1="23.75" x2="26" y2="23.75" width="0" layer="19" extent="1-16"/>
</signal>
<signal name="RESET">
<contactref element="U1" pad="1"/>
<contactref element="U$1" pad="1"/>
<wire x1="11.296053125" y1="6.953946875" x2="18.7482" y2="42.5275" width="0" layer="19" extent="16-16"/>
</signal>
<signal name="RED">
<contactref element="U1" pad="5"/>
<contactref element="LED1" pad="2"/>
<contactref element="U$1" pad="2"/>
<wire x1="22" y1="23.75" x2="12.0172" y2="38.7175" width="0" layer="19" extent="1-16"/>
<wire x1="10.398028125" y1="7.851971875" x2="22" y2="23.75" width="0" layer="19" extent="1-16"/>
</signal>
<signal name="GREEN">
<contactref element="U1" pad="7"/>
<contactref element="LED1" pad="1"/>
<contactref element="U$1" pad="4"/>
<wire x1="22" y1="25.45" x2="12.0172" y2="41.2575" width="0" layer="19" extent="1-16"/>
<wire x1="8.601975" y1="9.648025" x2="22" y2="25.45" width="0" layer="19" extent="1-16"/>
</signal>
<signal name="SENSOR">
<contactref element="U$2" pad="EMITTER"/>
<contactref element="R1" pad="1"/>
<contactref element="U1" pad="2"/>
<wire x1="6.7575" y1="33.32" x2="18.7482" y2="41.2575" width="0" layer="19" extent="16-16"/>
<wire x1="4.71" y1="30.47" x2="6.7575" y2="33.32" width="0" layer="19" extent="16-16"/>
</signal>
<signal name="BUTTON">
<contactref element="U1" pad="3"/>
<contactref element="S2" pad="3"/>
<wire x1="14.96" y1="8.405" x2="18.7482" y2="39.9875" width="0" layer="19" extent="16-16"/>
</signal>
<signal name="BLUE">
<contactref element="U1" pad="6"/>
<contactref element="LED1" pad="3"/>
<contactref element="U$1" pad="3"/>
<wire x1="22" y1="22.05" x2="12.0172" y2="39.9875" width="0" layer="19" extent="1-16"/>
<wire x1="9.5" y1="8.75" x2="22" y2="22.05" width="0" layer="19" extent="1-16"/>
</signal>
<signal name="N$2">
<contactref element="IC1" pad="5"/>
<contactref element="R2" pad="2"/>
<wire x1="9.25" y1="22.85" x2="8.3" y2="25.45" width="0" layer="19" extent="16-16"/>
</signal>
<signal name="BATT-CHARGE">
<contactref element="IC1" pad="3"/>
<contactref element="S1" pad="1"/>
<wire x1="29.75" y1="7.5" x2="10.2" y2="28.05" width="0" layer="19" extent="16-16"/>
</signal>
<signal name="N$1">
<contactref element="IC1" pad="4"/>
<contactref element="R3" pad="2"/>
<contactref element="C3" pad="2"/>
<wire x1="10.2" y1="25.45" x2="8.65" y2="30.5" width="0" layer="19" extent="16-16"/>
<wire x1="6.1" y1="17.25" x2="10.2" y2="25.45" width="0" layer="19" extent="16-16"/>
</signal>
<signal name="N$5">
<contactref element="LED2" pad="A"/>
<contactref element="R3" pad="1"/>
<wire x1="4.4" y1="17.25" x2="8.5" y2="17.25" width="0" layer="19" extent="16-16"/>
</signal>
<signal name="N$7">
<contactref element="LED2" pad="C"/>
<contactref element="IC1" pad="1"/>
<wire x1="10" y1="17.25" x2="8.3" y2="28.05" width="0" layer="19" extent="16-16"/>
</signal>
<signal name="N$3">
<contactref element="BAT1" pad="1"/>
<contactref element="S1" pad="2"/>
<wire x1="24" y1="8.383" x2="31.25" y2="7.5" width="0" layer="19" extent="16-16"/>
</signal>
<signal name="N$4">
<contactref element="S2" pad="1"/>
<contactref element="R4" pad="2"/>
<wire x1="14.96" y1="4.595" x2="8.15" y2="15.5" width="0" layer="19" extent="16-16"/>
</signal>
</signals>
</board>
</drawing>
</eagle>
